Type,Address,Price
2 bedroom detached bungalow for sale,"Margate Road, Ramsgate, Kent","£425,000        "
4 bedroom flat for sale,"High Street, Herne Bay","£550,000        "
3 bedroom flat for sale,"High Street, Herne Bay","£250,000        "
2 bedroom flat for sale,"High Street, Herne Bay","£250,000        "
2 bedroom flat for sale,"High Street, Herne Bay","£250,000        "
3 bedroom house for sale,"Sea Street, Herne Bay",POA        
Studio flat for sale,"CHAUCER COURT, Brymore Road, Canterbury, Kent, CT1","£60,000        "
Studio flat for sale,"CHAUCER COURT, Brymore Road, Canterbury, Kent, CT1","£60,000        "
1 bedroom apartment for sale,"Parham Road, Canterbury","£60,000        "
1 bedroom flat for sale,"Parham Road, Canterbury","£65,000        "
1 bedroom flat for sale,"Parham Road, Canterbury","£65,000        "
1 bedroom retirement property for sale,"Kings Road, Herne Bay","£115,000        "
1 bedroom retirement property for sale,"Oakland Court, Herne Bay","£125,000        "
3 bedroom apartment for sale,"Ainsley Way, Chartham, Canterbury","£230,000        "
3 bedroom flat for sale,"Waldershare House, Waldershare, Dover, Kent, CT15","£330,000        "
1 bedroom flat for sale,"Parham Road, Canterbury","£50,000        "
6 bedroom terraced house for sale,"Gordon Road, Cliftonville, Margate, Kent","£450,000        "
2 bedroom flat for sale,"Old Watling Street, Canterbury","£299,999        "
2 bedroom flat for sale,"Grams Road, Walmer","£350,000        "
1 bedroom apartment for sale,"Parham Road, Canterbury","£44,000        "
2 bedroom flat for sale,"Botany Court, 91Kingsgate Avenue, Kingsgate, Broadstairs, CT10","£405,000        "
2 bedroom flat for sale,"Botany Court, 91 Kingsgate Avenue, Broadstairs, CT10","£390,000        "
2 bedroom flat for sale,"Botany Court, 91 Kingsgate Avenue, Broadstairs, CT10","£420,000        "
3 bedroom terraced house for sale,"Waterside Drive, Westgate-on-sea","£499,995        "
3 bedroom terraced house for sale,"Waterside Drive, Westgate-on-sea","£499,995        "
3 bedroom semi-detached bungalow for sale,"Babs Oak Hill, Sturry, Canterbury","£350,000        "
2 bedroom flat for sale,"Botany Court, 91 Kingsgate Avenue, Broadstairs, CT10","£425,000        "
3 bedroom semi-detached house for sale,"The Saxon, Plot 58, Millers Retreat, Station Road, Walmer","£375,000        "
2 bedroom apartment for sale,"Grams Road, Deal, Kent","£350,000        "
3 bedroom terraced house for sale,"Connaught Barracks, Dover, Kent","£425,000        "
2 bedroom apartment for sale,"Deans Mill Court, Canterbury","£150,000        "
2 bedroom end of terrace house for sale,"Russell Street, Dover, CT16","£249,950        "
1 bedroom retirement property for sale,"Roper Road, Canterbury","£185,000        "
5 bedroom end of terrace house for sale,"Beach Street, Deal, Kent","£1,125,000        "
4 bedroom end of terrace house for sale,"Haven Bank, Sandwich","£595,000        "
3 bedroom maisonette for sale,"Paragon, Ramsgate","£450,000        "
3 bedroom semi-detached house for sale,"Northgate, Canterbury","£350,000        "
5 bedroom detached house for sale,"Foreland Heights, Broadstairs, Kent","£900,000        "
5 bedroom house for sale,"Buenos Ayres, Margate","£999,995        "
2 bedroom flat for sale,"Northdown Road, Margate, Kent","£180,000        "
4 bedroom terraced house for sale,"Haven Bank, Sandwich","£575,000        "
8 bedroom end of terrace house for sale,"Folkestone Road, Dover, Kent","£650,000        "
3 bedroom barn conversion for sale,"Vincent Farm Mews, Margate","£330,000        "
2 bedroom flat for sale,"Northdown Road, Margate, Kent","£119,500        "
5 bedroom detached house for sale,"The Kingsdown, Plot 92, Millers Retreat, Station Road, Walmer","£565,000        "
7 bedroom end of terrace house for sale,"Albion Court, Harold Road","£575,000        "
3 bedroom apartment for sale,"Norfolk Road, Cliftonville, Margate","£199,995        "
1 bedroom flat for sale,"Dickens Court, Harold Road, Margate, Kent, CT9","£102,500        "
4 bedroom house for sale,"Sea View Road, Herne Bay","£585,000        "
1 bedroom retirement property for sale,"Darwin Court, Harold Road, Margate","£85,000        "
4 bedroom terraced house for sale,"St. Georges Road, Broadstairs","£475,000        "
4 bedroom house for sale,"Sea View Road, Herne Bay","£585,000        "
1 bedroom retirement property for sale,"Darwin Court, Harold Road, Margate","£85,000        "
5 bedroom terraced house for sale,"Westbrook Gardens, Margate","£675,000        "
Plot for sale,"Tower Parade, Whitstable","£1,050,000        "
3 bedroom semi-detached house for sale,"The Street, Ash, Canterbury, Kent","£650,000        "
2 bedroom flat for sale,"Queens Road, Ramsgate","£355,000        "
4 bedroom terraced house for sale,"Clarendon Street, Dover, CT17","£210,000        "
3 bedroom house for sale,"Central Parade, Herne Bay","£395,000        "
2 bedroom flat for sale,"Athelstan Road, Margate, Kent","£125,000        "
2 bedroom flat for sale,"Athelstan Road, Margate, Kent","£83,000        "
5 bedroom terraced house for sale,Walmer,"£675,000        "
1 bedroom retirement property for sale,"Kings Road, Herne Bay","£104,500        "
2 bedroom flat for sale,"Granville Drive, Herne Bay, CT6","£190,000        "
4 bedroom detached house for sale,"The Cricketers, Broadstairs","£1,000,000        "
6 bedroom terraced house for sale,"Rancorn Road, Westbrook","£575,000        "
4 bedroom detached house for sale,"Highfields Avenue, Herne Bay","£500,000        "
6 bedroom terraced house for sale,"Charlotte Square, Margate","£325,000        "
1 bedroom apartment for sale,"Hunting Gate, Birchington, Kent","£100,000        "
4 bedroom house for sale,"Sea Street, Herne Bay","£575,000        "
5 bedroom house for sale,"Queens Road, Westgate-On-Sea","£475,000        "
2 bedroom bungalow for sale,"Northdowns Close, Old Wives Lees, Canterbury, Kent, CT4","£375,000        "
9 bedroom property for sale,"Godwin Road, Cliftonville, Margate","£675,000        "
2 bedroom flat for sale,"Addington Street, Margate","£175,000        "
2 bedroom apartment for sale,"The Timber Section , London Road, Dover","£100,000        "
4 bedroom detached house for sale,"Whitstable Heights, Whitstable","£545,000        "
2 bedroom detached bungalow for sale,"Carlton Road, Kingsdown, Deal, Kent","£385,000        "
2 bedroom detached bungalow for sale,"Carlton Road, Kingsdown, Deal, Kent","£254,500        "
4 bedroom detached house for sale,"Woodlands Road, Adisham, Canterbury","£1,150,000        "
1 bedroom retirement property for sale,"Charlton Green, Dover, Dover, CT16","£238,000        "
2 bedroom retirement property for sale,"Charlton Green, Dover, Dover, CT16","£317,000        "
2 bedroom retirement property for sale,"Charlton Green, Dover, Dover, CT16","£315,000        "
1 bedroom retirement property for sale,"Charlton Green, Dover, Dover, CT16","£235,000        "
2 bedroom house for sale,"Upper Street, Kingsdown, Deal","£350,000        "
3 bedroom terraced house for sale,"Chatham Street, Ramsgate","£425,000        "
4 bedroom detached house for sale,"Thanet Way,","£507,995        "
2 bedroom end of terrace house for sale,"Lime Kiln Road, Canterbury","£260,000        "
9 bedroom house for sale,"Godwin Road, Cliftonville, Margate","£675,000        "
9 bedroom house for sale,"Godwin Road, Cliftonville, Margate","£675,000        "
2 bedroom bungalow for sale,"Bellevue Road, Whitstable","£400,000        "
3 bedroom semi-detached house for sale,"Seamark Close, Ramsgate, Kent, CT12","£325,000        "
2 bedroom flat for sale,"Tannery Way North, Canterbury","£230,000        "
3 bedroom detached house for sale,"Grams Road, Deal, CT14","£798,995        "
2 bedroom flat for sale,"Old Watling Street, Canterbury","£230,000        "
3 bedroom detached bungalow for sale,Deal,"£649,950        "
4 bedroom detached house for sale,"The Cricketers, Broadstairs CT10 2XY","£1,000,000        "
3 bedroom flat for sale,"40 Queens Road, Ramsgate","£425,000        "
1 bedroom retirement property for sale,"Abbots Lodge, Canterbury","£200,000        "
2 bedroom end of terrace house for sale,The Length,"£335,000        "
1 bedroom retirement property for sale,"Beechwood Avenue, Deal, CT14","£174,950        "
4 bedroom detached house for sale,"Thanet Way,","£504,995        "
1 bedroom flat for sale,"Hunting Gate, Birchington, Kent","£63,250        "
3 bedroom house for sale,"The Length, St. Nicholas At Wade, Birchington","£575,000        "
1 bedroom retirement property for sale,"Beach Street, Herne Bay","£75,000        "
1 bedroom apartment for sale,"Hunting Gate, Birchington, Kent","£66,500        "
3 bedroom house for sale,"Summer Meadow, Deal, CT14","£375,000        "
4 bedroom detached house for sale,"Thanet Way,","£504,995        "
2 bedroom flat for sale,"Sion Hill, Ramsgate, Kent","£480,000        "
3 bedroom terraced house for sale,"Westmeads Road, Whitstable","£375,000        "
2 bedroom flat for sale,"Park Road, Ramsgate","£155,000        "
2 bedroom apartment for sale,"The Bread Factory 14 Millers Hill, Ramsgate, CT11","£350,000        "
2 bedroom apartment for sale,"The Bread Factory 14 Millers Hill, Ramsgate, CT11","£375,000        "
2 bedroom flat for sale,"Norfolk Road, Cliftonville, Margate","£160,000        "
2 bedroom flat for sale,"Edgar Road, Cliftonville, Margate","£170,000        "
3 bedroom terraced house for sale,"St Mary's Street, Canterbury","£600,000        "
4 bedroom terraced house for sale,"South Road, Dover, CT17","£229,950        "
3 bedroom semi-detached bungalow for sale,"Percy Avenue, Kingsgate, Broadstairs, Kent","£450,000        "
3 bedroom semi-detached bungalow for sale,"Percy Avenue, Kingsgate, Broadstairs, Kent","£297,500        "
1 bedroom flat for sale,"Bay Square, High Street, Herne Bay","£225,000        "
2 bedroom apartment for sale,"The Bread Factory 14 Millers Hill, Ramsgate, CT11","£295,000        "
3 bedroom terraced house for sale,Toad Hall Dane Court Mews Tilmanstone,"£450,000        "
3 bedroom detached house for sale,"Dover Road, Walmer, Deal, Kent","£750,000        "
3 bedroom detached house for sale,"Dover Road, Walmer, Deal, Kent","£495,500        "
2 bedroom flat for sale,"Charlton Green, Elkington House, Dover, Kent","£315,000        "
2 bedroom ground floor flat for sale,"Charlton Green, Elkington House, Dover, Kent","£313,000        "
1 bedroom flat for sale,"Belmont Road, Whitstable","£225,000        "
2 bedroom flat for sale,"Charlton Green, Elkington House, Dover, Kent","£315,000        "
2 bedroom ground floor flat for sale,"Charlton Green, Elkington House, Dover, Kent","£313,000        "
2 bedroom flat for sale,"Chartlon Green, Elkington House, Dover, Kent","£317,000        "
2 bedroom flat for sale,"Charlton Green, Elkington House, Dover, Kent","£208,500        "
4 bedroom detached house for sale,"School Lane, Stourmouth, Canterbury, Kent","£350,500        "
2 bedroom flat for sale,"Effingham Street, Dover, Kent","£160,000        "
2 bedroom flat for sale,"Effingham Street, Dover, Kent","£106,000        "
Cottage for sale,"Manor Road, Deal, CT14","£175,000        "
3 bedroom apartment for sale,"William Street, Herne Bay","£699,995        "
3 bedroom detached house for sale,"Dover Road, Ringwould, CT14","£499,500        "
4 bedroom house for sale,"Kingsdown Road, Walmer, Deal","£595,000        "
5 bedroom detached house for sale,"Stanley Road, Whitstable, CT5","£1,100,000        "
2 bedroom ground floor flat for sale,"Miles Way, Birchington, Kent","£260,000        "
2 bedroom terraced house for sale,"High Street, Herne Bay, Kent","£300,000        "
5 bedroom detached house for sale,"Radley Close, Broadstairs","£625,000        "
5 bedroom detached house for sale,"The Length, Birchington","£1,000,000        "
1 bedroom flat for sale,"Athelstan Road, Cliftonville, Margate","£100,000        "
2 bedroom detached bungalow for sale,"Bridgefield Road, Tankerton, Whitstable","£375,000        "
3 bedroom flat for sale,"72 Dumpton Park Drive, Broadstairs, CT10","£475,000        "
2 bedroom terraced house for sale,Canterbury,"£325,000        "
2 bedroom apartment for sale,Broadstairs,"£315,000        "
4 bedroom detached house for sale,"George V Avenue, Margate, Kent","£700,000        "
1 bedroom flat for sale,"High Street, Herne Bay","£125,000        "
4 bedroom detached house for sale,"George V Avenue, Margate, Kent","£462,500        "
3 bedroom semi-detached house for sale,"Forelands Square, Deal","£295,000        "
4 bedroom semi-detached house for sale,"Effingham Street, Dover, Kent","£400,000        "
3 bedroom semi-detached house for sale,"Church Path, Deal, CT14","£365,000        "
3 bedroom semi-detached house for sale,"Shalloak Road, Canterbury, CT2","£375,000        "
4 bedroom semi-detached house for sale,"Effingham Street, Dover, Kent","£264,500        "
2 bedroom flat for sale,"Deans Mill Court, Canterbury, CT1 2BF","£150,000        "
3 bedroom semi-detached house for sale,"Monkton Road,","£440,000        "
2 bedroom bungalow for sale,"Magnolia Walk, Herne Bay, Kent","£295,000        "
2 bedroom bungalow for sale,"Cross Road, Walmer, CT14","£329,950        "
2 bedroom detached house for sale,"South Court, Deal, CT14","£300,000        "
9 bedroom terraced house for sale,"Folkestone Road, Dover, CT17","£620,000        "
3 bedroom terraced bungalow for sale,"Barley Close, Martin Mill, Dover","£325,000        "
5 bedroom detached house for sale,"Thistle Drive, Whitstable","£550,000        "
2 bedroom terraced house for sale,"2 Ventnor Lane, Margate","£321,000        "
5 bedroom ground maisonette for sale,"St. Augustine's Road, Ramsgate, Kent","£825,000        "
3 bedroom terraced house for sale,"Wood Street, Dover, Kent","£220,000        "
4 bedroom detached house for sale,"Golden Hill, Whitstable","£725,000        "
3 bedroom terraced house for sale,"Wood Street, Dover, Kent","£145,500        "
3 bedroom bungalow for sale,"Kingston Close, HERNE BAY, CT6","£550,000        "
4 bedroom town house for sale,Montefiore Avenue Ramsgate,"£435,000        "
2 bedroom apartment for sale,"The Bread Factory 12 Millers Hill, Ramsgate, CT11","£280,000        "
6 bedroom terraced house for sale,"Canterbury Road, Margate","£495,000        "
4 bedroom detached house for sale,"Clover Rise, Whitstable, CT5","£795,000        "
2 bedroom park home for sale,"Near Herne Bay, Kent, CT6","£295,000        "
2 bedroom maisonette for sale,"Magdalen Court, Broadstairs, CT10","£240,000        "
3 bedroom detached house for sale,"Princess Avenue, Canterbury","£400,000        "
2 bedroom terraced house for sale,"Best Lane, Canterbury","£450,000        "
2 bedroom flat for sale,"Northdown Road, Margate","£130,000        "
2 bedroom retirement property for sale,"Orchard Yard, Wingham, Canterbury","£655,000        "
3 bedroom retirement property for sale,"Canterbury Road, Canterbury","£821,500        "
2 bedroom duplex for sale,"Out Downs, Deal, CT14","£449,950        "
4 bedroom bungalow for sale,"Jubilee Road, Worth","£635,000        "
2 bedroom terraced house for sale,"Northdown Road, Broadstairs","£250,000        "
1 bedroom retirement property for sale,"Knotts Lane, Canterbury, CT1","£100,000        "
3 bedroom terraced house for sale,"Thanet Road, Ramsgate, CT11","£450,000        "
4 bedroom detached house for sale,"Whitstable Heights, Whitstable","£565,000        "
2 bedroom detached house for sale,Walmer,"£450,000        "
4 bedroom detached house for sale,"Flamingo Drive, Herne Bay","£595,000        "
4 bedroom detached house for sale,"Chequer Lane,","£514,995        "
4 bedroom detached house for sale,"Chequer Lane,","£509,995        "
4 bedroom detached house for sale,"Chequer Lane,","£499,995        "
2 bedroom apartment for sale,"Salisbury Road, Dover, Kent","£150,000        "
6 bedroom terraced house for sale,"Central Parade, Herne Bay","£895,000        "
2 bedroom apartment for sale,"Salisbury Road, Dover, Kent","£99,500        "
3 bedroom bungalow for sale,"Chapel Road, Tilmanstone, Deal","£475,000        "
2 bedroom flat for sale,"High Street, Herne Bay","£1,500,000        "
2 bedroom penthouse for sale,"Out Downs, Deal, Kent","£399,950        "
1 bedroom flat for sale,"Poldark Court, Victoria Parade, Ramsgate, Kent, CT11","£125,000        "
5 bedroom detached house for sale,Herne Bay,"£850,000        "
2 bedroom flat for sale,"Ranelagh Road, Deal","£340,000        "
4 bedroom detached house for sale,"Beech Avenue, Chartham","£545,000        "
1 bedroom retirement property for sale,Birchington,"£80,000        "
2 bedroom penthouse for sale,"Out Downs, Deal, Kent","£264,500        "
2 bedroom apartment for sale,"Regent Street, Whitstable","£290,000        "
4 bedroom semi-detached house for sale,"Wayborough Hill, Minster, Ramsgate","£489,995        "
4 bedroom detached bungalow for sale,"Tippledore Lane, Broadstairs","£600,000        "
4 bedroom detached house for sale,"Grove Road, Wickhambreaux, Canterbury","£799,000        "
3 bedroom semi-detached bungalow for sale,"Nursery Lane, Dover, CT16","£425,000        "
5 bedroom detached house for sale,Station Road,"£565,000        "
5 bedroom town house for sale,"Effingham Street, Dover, Kent","£335,000        "
5 bedroom town house for sale,"Effingham Street, Dover, Kent","£221,500        "
4 bedroom town house for sale,"Effingham Street, Dover, CT17","£335,000        "
3 bedroom detached bungalow for sale,"Green Acres, Dover, CT15","£415,000        "
Property for sale,"Tankerton, Whitstable","£60,000        "
1 bedroom retirement property for sale,"Pier Avenue, Herne Bay","£139,900        "
1 bedroom flat for sale,"Darwin Court, Margate, CT9 2JX","£74,999        "
4 bedroom detached house for sale,"Whitstable Heights, Whitstable","£545,000        "
2 bedroom semi-detached house for sale,Holiday Let Near the Beach in Walmer CT14 7HE,"£325,000        "
8 bedroom semi-detached house for sale,"Canterbury Road, Margate","£975,000        "
9 bedroom terraced house for sale,"Augusta Road, Ramsgate, Kent, CT11","£650,000        "
5 bedroom detached house for sale,"Common Lane, River, Dover, Kent","£695,000        "
3 bedroom terraced house for sale,"Saltway Court, West Cliff, Whitstable","£475,000        "
3 bedroom bungalow for sale,"Westmarsh, Canterbury, Kent","£570,000        "
2 bedroom flat for sale,"Flagstaff Court, Canterbury, CT1","£229,995        "
3 bedroom house for sale,"Westgate Grove, Canterbury, Kent","£850,000        "
2 bedroom flat for sale,"Granville Road, Broadstairs","£275,000        "
3 bedroom detached house for sale,"Aspen Road, Herne Bay","£425,000        "
4 bedroom detached house for sale,"Dane Road, Minnis Bay, Birchington","£1,750,000        "
3 bedroom semi-detached house for sale,"Hunters Walk, Sholden, Deal, Kent","£231,500        "
3 bedroom semi-detached house for sale,"Hunters Walk, Sholden, Deal, Kent","£350,000        "
2 bedroom apartment for sale,"2 Millers Hill, Ramsgate, CT11","£300,000        "
3 bedroom detached house for sale,"St. Lukes Avenue, Ramsgate","£350,000        "
3 bedroom house for sale,"Grasmere Road, Whitstable","£695,000        "
2 bedroom apartment for sale,"The Gateway, Dover, CT16","£319,950        "
1 bedroom retirement property for sale,Canterbury,"£130,000        "
4 bedroom detached house for sale,"Neptune Gap, Whitstable, Kent","£1,550,000        "
1 bedroom flat for sale,"Kentish House, Parham Road, Canterbury, Kent, CT1","£58,000        "
4 bedroom end of terrace house for sale,"The Beach House, Beach Street, Deal","£1,050,000        "
1 bedroom flat for sale,"St. Peters Road, Broadstairs, Kent, CT10","£180,000        "
4 bedroom detached house for sale,"Percy Avenue, Broadstairs, CT10","£700,000        "
5 bedroom detached house for sale,"Manor Road, Bishopstone, Herne Bay","£795,000        "
2 bedroom flat for sale,"Trinity Square, Margate, Kent, CT9","£130,000        "
7 bedroom detached house for sale,"Parish Road, Chartham, Canterbury, Kent","£2,750,000        "
5 bedroom detached house for sale,"Harkness Drive, Canterbury","£1,300,000        "
Land for sale,"Riley Avenue, Herne Bay","£340,000        "
1 bedroom flat for sale,"Mayfield Avenue, Dover","£115,000        "
6 bedroom detached house for sale,"Flax Court Lane, Eythorne, Dover, CT15","£750,000        "
1 bedroom flat for sale,"Strand Street, Sandwich","£190,000        "
3 bedroom end of terrace house for sale,Marlowe Way,"£378,995        "
3 bedroom semi-detached house for sale,Ringwould,"£425,000        "
3 bedroom terraced house for sale,"Streete Court, Westgate-on-Sea, CT8","£392,000        "
3 bedroom apartment for sale,"Tankerton Road, Tankerton, Whitstable","£245,000        "
2 bedroom detached bungalow for sale,"Sycamore Close, Broadstairs, Kent","£300,000        "
2 bedroom detached bungalow for sale,"Sycamore Close, Broadstairs, Kent","£198,500        "
2 bedroom apartment for sale,"Ramsgate,","£415,000        "
2 bedroom flat for sale,"Wherry Close, Margate","£155,000        "
1 bedroom flat for sale,"Chislet Court, Herne Bay, CT6 8PD","£127,500        "
1 bedroom retirement property for sale,"Station Road West, Canterbury","£95,000        "
4 bedroom semi-detached house for sale,"Poulders Gardens, Sandwich","£480,000        "
3 bedroom terraced house for sale,"Star Lane Link,","£337,995        "
3 bedroom terraced house for sale,"Star Lane Link,","£344,995        "
3 bedroom detached bungalow for sale,"Northdown Way, Margate","£450,000        "
3 bedroom semi-detached bungalow for sale,"Ramsgate Road, Broadstairs, Kent","£440,000        "
4 bedroom end of terrace house for sale,"Sandwich Road, Dover, CT15","£385,000        "
2 bedroom apartment for sale,"Grams Road, Deal, Kent","£231,500        "
2 bedroom flat for sale,"Market Place, Margate","£225,000        "
2 bedroom flat for sale,"Alexandra Road, Margate","£195,000        "
2 bedroom apartment for sale,"Chantry Hall, Canterbury","£410,000        "
1 bedroom apartment for sale,"Hunting Gate, Birchington","£88,500        "
3 bedroom semi-detached house for sale,"Monkton Street, Monkton, Ramsgate, Kent","£425,000        "
3 bedroom semi-detached house for sale,"Monkton Street, Monkton, Ramsgate, Kent","£281,000        "
2 bedroom retirement property for sale,Canterbury Centre,"£164,995        "
2 bedroom semi-detached bungalow for sale,"Western Road, Margate","£325,000        "
8 bedroom terraced house for sale,"Russell Street, Dover, Kent, CT16","£425,000        "
2 bedroom apartment for sale,"Market Place, Margate","£223,995        "
3 bedroom semi-detached bungalow for sale,"Minnis Road, Birchington","£385,000        "
8 bedroom terraced house for sale,"Russell Street, Dover, Kent, CT16","£425,000        "
2 bedroom apartment for sale,"Market Place, Margate","£223,995        "
4 bedroom detached house for sale,"Whitstable Heights, Whitstable","£547,500        "
2 bedroom flat for sale,"Chandos Square, Broadstairs","£260,000        "
1 bedroom flat for sale,"Chater Court, Deal","£150,000        "
3 bedroom detached bungalow for sale,"Ashley Drive, Seasalter, Whitstable","£500,000        "
4 bedroom detached house for sale,Ramsgate,"£1,395,000        "
4 bedroom detached bungalow for sale,"Mill Lane, Herne Bay","£700,000        "
3 bedroom semi-detached house for sale,Kent Avenue,"£300,000        "
4 bedroom detached house for sale,"Puckle Lane, Canterbury","£950,000        "
2 bedroom apartment for sale,"Wraik Hill, Whitstable","£265,000        "
2 bedroom apartment for sale,"Ramsgate,","£600,000        "
7 bedroom detached house for sale,"Winterstoke Crescent, Ramsgate","£1,200,000        "
4 bedroom detached bungalow for sale,"Castle Road, Tankerton, Whitstable","£875,000        "
3 bedroom semi-detached house for sale,"Deanwood Road, Dover, CT17","£325,000        "
4 bedroom detached house for sale,"Jasmine Close, St Augustines, Chartham","£650,000        "
4 bedroom detached house for sale,"Broomfield Road, Herne Bay","£850,000        "
3 bedroom detached house for sale,"Walmsley Road, Broadstairs","£599,000        "
2 bedroom semi-detached bungalow for sale,"Cliff Road, Birchington, Kent, CT7","£295,000        "
Property for sale,"Spa Esplanade, Herne Bay","£35,000        "
Property for sale,"West Beach, Whitstable","£65,000        "
1 bedroom apartment for sale,"High Street, Whitstable, Kent","£165,500        "
2 bedroom apartment for sale,"Bierce Court, Lyell Road, Birchington, Kent, CT7","£230,000        "
2 bedroom bungalow for sale,"Drapers View, Margate","£400,000        "
3 bedroom detached house for sale,"Princess Avenue, Canterbury","£400,000        "
4 bedroom detached house for sale,"The Terrace, Shepherdswell, Dover, Kent","£650,000        "
4 bedroom detached house for sale,"The Terrace, Shepherdswell, Dover, Kent","£429,500        "
2 bedroom park home for sale,"Reculver Court, Herne Bay, Kent, CT6","£235,000        "
5 bedroom detached house for sale,"Island Road, Upstreet, Canterbury","£750,000        "
2 bedroom terraced house for sale,"Manston Court Road, Manston, Ramsgate","£300,000        "
3 bedroom link detached house for sale,"Monkton Road,","£475,000        "
4 bedroom detached house for sale,"Flamingo Drive, Herne Bay, Kent","£373,500        "
4 bedroom detached house for sale,"Flamingo Drive, Herne Bay, Kent","£565,000        "
Studio flat for sale,"Kings Road, Herne Bay","£95,000        "
1 bedroom flat for sale,"Kings Road, Herne Bay","£165,000        "
1 bedroom flat for sale,"Kings Road, Herne Bay","£110,000        "
3 bedroom ground floor flat for sale,"Beresford Gardens, Cliftonville, Margate, Kent","£300,000        "
3 bedroom ground floor flat for sale,"Beresford Gardens, Cliftonville, Margate, Kent","£198,500        "
5 bedroom semi-detached house for sale,"Mead Way, Canterbury","£325,000        "
4 bedroom detached house for sale,"Dargate Road, Yorkletts, Whitstable","£650,000        "
2 bedroom detached house for sale,"Rose Cottage, 2 High Street, Canterbury","£475,000        "
5 bedroom detached house for sale,"Pean Hill, Whitstable, CT5","£2,950,000        "
5 bedroom detached house for sale,Broadstairs,"£850,000        "
5 bedroom house for sale,"Northwood Road, Ramsgate","£550,000        "
5 bedroom bungalow for sale,"Northwood Road, Ramsgate, Kent, CT12","£550,000        "
4 bedroom detached house for sale,"Sea View Road, St Margarets Bay, Dover, Kent","£1,750,000        "
1 bedroom flat for sale,"The Marina, Deal, Kent","£375,000        "
2 bedroom detached bungalow for sale,"Cliff View Road, Cliffsend, Ramsgate, Kent","£248,000        "
2 bedroom detached bungalow for sale,"Cliff View Road, Cliffsend, Ramsgate, Kent","£375,000        "
4 bedroom detached house for sale,"Honey Hill, Whitstable, CT5","£600,000        "
3 bedroom detached house for sale,"Aspen Road, Herne Bay, CT6","£425,000        "
2 bedroom flat for sale,"High Street, Garlinge, Margate","£199,995        "
3 bedroom detached house for sale,"Lanthorne Road,","£675,000        "
3 bedroom semi-detached house for sale,"Lanthorne Road,","£500,000        "
3 bedroom semi-detached house for sale,"Lanthorne Road,","£425,000        "
3 bedroom semi-detached house for sale,"Lanthorne Road,","£505,000        "
2 bedroom flat for sale,"Military Road, Canterbury","£215,000        "
2 bedroom flat for sale,"Albion Mews, Ramsgate, Kent, CT11","£220,000        "
2 bedroom flat for sale,"Cheviot Court, Broadstairs, CT10","£300,000        "
3 bedroom detached house for sale,"Aspen Road, Herne Bay, CT6","£425,000        "
3 bedroom terraced house for sale,"St. Peter's Lane, Canterbury, Kent, CT1","£500,000        "
4 bedroom detached bungalow for sale,"Kenilworth Close, St Margarets Bay, Dover, Kent","£600,000        "
4 bedroom detached bungalow for sale,"Kenilworth Close, St Margarets Bay, Dover, Kent","£396,500        "
4 bedroom terraced house for sale,"Bridge Close, Sandwich, CT13","£500,000        "
4 bedroom detached house for sale,"Fleets Lane, Tyler Hill, Canterbury, Kent","£2,000,000        "
3 bedroom maisonette for sale,"Seapoint Road, Broadstairs, Kent","£1,000,000        "
3 bedroom terraced house for sale,"Tenterden Drive, Canterbury, CT2","£280,000        "
3 bedroom flat for sale,Canterbury,"£525,000        "
1 bedroom flat for sale,"The Marina, Deal, Kent","£375,000        "
2 bedroom bungalow for sale,"Drapers View, Margate","£400,000        "
2 bedroom bungalow for sale,"Drapers View, Margate","£375,000        "
2 bedroom bungalow for sale,"Drapers View, Margate","£375,000        "
3 bedroom semi-detached house for sale,"Cobham Close, Canterbury","£525,000        "
3 bedroom terraced house for sale,"East Street, Dover, CT17","£239,950        "
3 bedroom detached bungalow for sale,"The Street, Stourmouth, Canterbury","£595,000        "
3 bedroom end of terrace house for sale,"Adrian Street, Dover, Kent","£248,000        "
3 bedroom end of terrace house for sale,"Adrian Street, Dover, Kent","£375,000        "
2 bedroom house for sale,"Sea Street, Whitstable","£865,000        "
2 bedroom semi-detached house for sale,"Island Road, Canterbury","£380,000        "
4 bedroom detached house for sale,"Convent Road, Broadstairs, CT10","£800,000        "
5 bedroom detached bungalow for sale,"Mill Lane, Herne Bay","£685,000        "
2 bedroom apartment for sale,"Sandpiper Court, Fort Hill, Margate","£225,000        "
3 bedroom detached bungalow for sale,"Alpha Road, Birchington","£550,000        "
5 bedroom terraced house for sale,"Martyrs Field Road, Canterbury","£290,000        "
3 bedroom bungalow for sale,"Cliff View Road, Cliffsend, Ramsgate, Kent, CT12","£350,000        "
4 bedroom semi-detached house for sale,"Canute Road, Birchington","£525,000        "
2 bedroom detached house for sale,"Dane Road, Minnis Bay, Birchington","£450,000        "
Studio flat for sale,"High Street, Sturry, CT2","£550,000        "
3 bedroom penthouse for sale,"Fort Hill, Margate, Kent, CT9","£1,000,000        "
1 bedroom apartment for sale,"46 St. Dunstans Street, Canterbury, CT2","£180,000        "
1 bedroom flat for sale,"Godwin Road, Cliftonville, Margate, Kent","£195,000        "
1 bedroom flat for sale,"Godwin Road, Cliftonville, Margate, Kent","£129,000        "
4 bedroom detached house for sale,"Jute Fields, Deal, CT14","£445,000        "
2 bedroom end of terrace house for sale,"Newington Road, Ramsgate","£265,000        "
4 bedroom detached house for sale,"Bewsbury Cross Lane,Whitfield,Kent,CT16 3EZ","£900,000        "
5 bedroom detached house for sale,"Holland Close, Broadstairs","£950,000        "
8 bedroom detached house for sale,Dominic Murphy presents this large period home in St Margaret's at Cliffe,"£1,695,000        "
2 bedroom end of terrace house for sale,"Laurette close, Cliftonville, Margate","£275,000        "
5 bedroom detached house for sale,"Stanley Road,Whitstable,Kent,CT5 4NQ","£1,100,000        "
1 bedroom flat for sale,"Belmont Road, Whitstable","£225,000        "
3 bedroom terraced house for sale,Wincheap,"£240,000        "
3 bedroom semi-detached house for sale,"Western Road,Margate,CT9 3QP","£315,000        "
4 bedroom terraced house for sale,"Duke Street, Deal, Kent","£795,000        "
4 bedroom terraced house for sale,"Duke Street, Deal, Kent","£525,000        "
3 bedroom flat for sale,"Edgar Road, Cliftonville, Margate","£310,000        "
3 bedroom semi-detached house for sale,"The Street,Eythorne,Kent,CT15 4BG","£575,000        "
2 bedroom cottage for sale,"School Lane, Wingham, Canterbury","£275,000        "
3 bedroom flat for sale,"Royal Crescent, St. Augustines Road, Ramsgate, Kent, CT11","£550,000        "
Plot for sale,"Adrian Street, Dover, Kent, CT17","£1,000,000        "
5 bedroom semi-detached house for sale,"Fitzroy Avenue, Broadstairs, CT10","£735,000        "
2 bedroom penthouse for sale,"Ramsgate,","£735,000        "
1 bedroom apartment for sale,"Swinburne Avenue, Broadstairs","£200,000        "
2 bedroom apartment for sale,"The Gateway, Dover, CT16","£359,950        "
2 bedroom flat for sale,"Folkestone Road, Dover, CT17","£125,000        "
4 bedroom semi-detached house for sale,"Sandhurst Road, Cliftonville, Margate, Kent","£525,000        "
4 bedroom semi-detached house for sale,"Sandhurst Road, Cliftonville, Margate, Kent","£347,000        "
4 bedroom detached house for sale,"Parish Close, Broadstairs, Kent, CT10","£425,000        "
3 bedroom terraced house for sale,"36  Cherry Tree Avenue, Dover","£299,000        "
6 bedroom detached house for sale,"North Foreland Avenue, Broadstairs","£1,699,995        "
5 bedroom detached house for sale,"Eversleigh Rise, Whitstable","£575,000        "
3 bedroom end of terrace house for sale,"Brunswick Street, Ramsgate","£240,000        "
3 bedroom apartment for sale,"Lord Warden Avenue, Walmer, CT14","£250,000        "
3 bedroom ground floor flat for sale,"Lord Warden Avenue, Walmer, Deal, Kent","£250,000        "
2 bedroom apartment for sale,"Charlotte Court, Royal Sea Bathing, Westbrook, Margate","£230,000        "
3 bedroom detached bungalow for sale,"Dane Court Gardens, Broadstairs","£450,000        "
3 bedroom flat for sale,"Lord Warden Avenue, Walmer, Deal","£250,000        "
2 bedroom penthouse for sale,"Royal Crescent, Margate, Kent, CT9","£300,000        "
3 bedroom terraced house for sale,"Mortimer Street, Herne Bay","£435,000        "
2 bedroom detached bungalow for sale,"Ellison Close, Chestfield.","£550,000        "
2 bedroom terraced house for sale,"Christchurch Way, Dover, CT16","£235,000        "
5 bedroom detached house for sale,"Ellis Way, Herne Bay","£635,000        "
4 bedroom semi-detached house for sale,"Park Avenue, Deal, Kent, CT14","£600,000        "
5 bedroom detached house for sale,"Holland Close, Broadstairs","£950,000        "
4 bedroom terraced house for sale,"Barton Mill Road, Canterbury, CT1","£365,000        "
2 bedroom house for sale,"High Street, Ash, Canterbury","£320,000        "
5 bedroom terraced house for sale,"Percy Avenue, Broadstairs, Kent, CT10","£462,500        "
10 bedroom house for sale,"Harold Road, Cliftonville, Margate","£1,125,000        "
6 bedroom house for sale,"Ramsgate Road, Margate","£600,000        "
9 bedroom house for sale,"Ramsgate Road, Margate","£888,000        "
3 bedroom end of terrace house for sale,"Cannonbury Road,Ramsgate,CT11 9NQ","£270,000        "
3 bedroom house for sale,"St. Pauls Crescent, Boughton-Under-Blean, Faversham","£375,000        "
3 bedroom terraced house for sale,"Chapel Road, Ramsgate","£260,000        "
3 bedroom end of terrace house for sale,"Townsend Farm Road, St. Margarets-At-Cliffe, Dover","£390,000        "
Property for sale,"London Road, Dover","£255,000        "
1 bedroom flat for sale,"St. Thomas Hill, Canterbury, Kent","£190,000        "
1 bedroom flat for sale,"St. Thomas Hill, Canterbury, Kent","£126,000        "
7 bedroom detached house for sale,"Watery Lane, Petham, Nr Canterbury, CT4","£1,450,000        "
5 bedroom detached house for sale,"New Dover Road, Canterbury, Kent, CT1","£1,400,000        "
4 bedroom semi-detached house for sale,"Ashenden Close, Canterbury, Kent","£475,000        "
3 bedroom semi-detached house for sale,"The Street, Woodnesborough","£375,000        "
7 bedroom detached house for sale,"Watery Lane, Petham, Nr Canterbury, CT4","£1,450,000        "
5 bedroom detached house for sale,"New Dover Road, Canterbury, Kent, CT1","£1,400,000        "
4 bedroom semi-detached house for sale,"Ashenden Close, Canterbury, Kent","£475,000        "
4 bedroom semi-detached house for sale,"Ashenden Close, Canterbury, Kent","£314,000        "
5 bedroom terraced house for sale,"Kemsing Gardens, Canterbury, CT2","£325,000        "
2 bedroom terraced house for sale,"Alexandra Road, Ramsgate","£160,000        "
6 bedroom chalet for sale,"Tivoli Park Avenue, Margate","£600,000        "
4 bedroom house for sale,"Bank Street, Herne Bay","£399,995        "
3 bedroom bungalow for sale,"Danes Court, Dover, Kent","£415,000        "
4 bedroom semi-detached house for sale,"Cooper Drive, Herne Bay, CT6","£450,000        "
4 bedroom semi-detached house for sale,"Island Road, Upstreet, Canterbury, Kent","£485,000        "
4 bedroom semi-detached house for sale,"Island Road, Upstreet, Canterbury, Kent","£320,500        "
2 bedroom flat for sale,"Antelope Close, Whitfield, Dover, CT16","£170,000        "
3 bedroom terraced house for sale,"Helena Avenue, Margate","£390,000        "
2 bedroom flat for sale,"Olympia Way, Whitstable","£235,000        "
4 bedroom terraced house for sale,"George Roche Road, Canterbury","£425,000        "
2 bedroom retirement property for sale,"Stour Street, Canterbury, CT1","£140,000        "
3 bedroom semi-detached house for sale,"Thurston Park, Whitstable","£500,000        "
4 bedroom detached house for sale,"Manston Road, Manston, Ramsgate, CT12","£829,000        "
4 bedroom town house for sale,"Bluefield Mews, Whitstable","£365,000        "
2 bedroom flat for sale,"Old Dover Road, Canterbury","£190,000        "
3 bedroom detached bungalow for sale,"Common Lane, River, Dover","£500,000        "
4 bedroom terraced house for sale,"South Road, Dover, CT17","£229,950        "
4 bedroom detached house for sale,"Tradewinds, Whitstable","£475,000        "
2 bedroom bungalow for sale,"Chanctonbury Chase, Seasalter, CT5","£495,000        "
4 bedroom terraced house for sale,"Sycamore Grange, Ramsgate","£350,000        "
3 bedroom semi-detached house for sale,"High Street, Garlinge","£395,000        "
3 bedroom semi-detached house for sale,"Cherry Waye, Eythorne, Dover, Kent","£325,000        "
3 bedroom semi-detached house for sale,"Cherry Waye, Eythorne, Dover, Kent","£215,000        "
5 bedroom detached house for sale,"Woodnesborough Road, Sandwich, CT13","£475,000        "
1 bedroom flat for sale,"Union Crescent, Margate","£160,000        "
2 bedroom bungalow for sale,"St. Michaels Avenue, Margate","£385,000        "
3 bedroom terraced house for sale,"St. Bartholomew's Close, Dover","£260,000        "
3 bedroom semi-detached house for sale,"College Road, Ramsgate, Kent, CT11","£300,000        "
2 bedroom flat for sale,Canterbury,"£242,500        "
1 bedroom apartment for sale,"Kentish House, Parham Road, Canterbury","£45,000        "
2 bedroom flat for sale,"Pier Avenue, Herne Bay, Kent","£165,500        "
2 bedroom flat for sale,"Pier Avenue, Herne Bay, Kent","£250,000        "
4 bedroom detached house for sale,"Dumpton Park Drive, Broadstairs, CT10","£1,450,000        "
4 bedroom end of terrace house for sale,"Garfield Road, Margate, CT9","£525,000        "
2 bedroom terraced house for sale,"St. Georges Road, Ramsgate, Kent, CT11","£250,000        "
2 bedroom terraced house for sale,"Oswald Place, Dover, Kent, CT17","£200,000        "
3 bedroom terraced house for sale,"Norman Road, Ramsgate","£375,000        "
2 bedroom apartment for sale,"Clarendon Road,Cliftonville,  Margate","£395,000        "
1 bedroom flat for sale,"Homebirch House, Birchington, CT7 9EL","£90,000        "
2 bedroom flat for sale,"Station Road West, Canterbury, Kent","£225,000        "
3 bedroom detached house for sale,"Orchard Close, St Nicholas At Wade, Birchington, CT7","£510,000        "
3 bedroom detached bungalow for sale,"George Hill Road, Broadstairs","£525,000        "
4 bedroom detached house for sale,"Common Lane, River, Dover","£695,000        "
3 bedroom semi-detached bungalow for sale,"Newington Road, Ramsgate","£310,000        "
1 bedroom flat for sale,"Carroways Place, Margate","£117,500        "
2 bedroom detached bungalow for sale,"Victoria Avenue, Broadstairs","£350,000        "
6 bedroom terraced house for sale,"Paragon, Ramsgate, Kent, CT11","£900,000        "
3 bedroom semi-detached house for sale,"Victoria Mews, Victoria Road, Ramsgate, Kent, CT11","£290,000        "
2 bedroom semi-detached bungalow for sale,"Marine Crescent, Tankerton, Whitstable","£465,000        "
3 bedroom terraced house for sale,"Canterbury Road, Sarre, Birchington","£300,000        "
3 bedroom detached house for sale,"Station Drive, Walmer, CT14","£345,000        "
3 bedroom flat for sale,"Beach Drive, Ramsgate, CT11","£620,000        "
1 bedroom maisonette for sale,"Alkham Close, Cliftonville, Margate, Kent","£190,000        "
1 bedroom maisonette for sale,"Alkham Close, Cliftonville, Margate, Kent","£126,000        "
3 bedroom town house for sale,"Tannery Way North, Canterbury","£450,000        "
2 bedroom semi-detached bungalow for sale,"Eden Road, Seasalter, Whitstable, Kent","£395,000        "
2 bedroom semi-detached bungalow for sale,"Eden Road, Seasalter, Whitstable, Kent","£261,000        "
4 bedroom terraced house for sale,"Victoria Street, Whitstable, Kent","£450,000        "
4 bedroom terraced house for sale,"Victoria Street, Whitstable, Kent","£297,500        "
2 bedroom apartment for sale,Westgate,"£265,000        "
1 bedroom flat for sale,"St. Mildreds Gardens, Westgate-on-Sea","£225,000        "
6 bedroom detached house for sale,"Oxford Street, Whitstable","£1,250,000        "
3 bedroom semi-detached house for sale,"Millstrood Road, Whitstable, Kent","£475,000        "
3 bedroom semi-detached house for sale,"Millstrood Road, Whitstable, Kent","£314,000        "
4 bedroom detached house for sale,"Arden Road, Herne Bay","£450,000        "
2 bedroom detached bungalow for sale,"St. Mildreds Avenue, Birchington, Kent, CT7","£500,000        "
2 bedroom terraced house for sale,"Station Road, Whitstable","£355,000        "
2 bedroom end of terrace house for sale,"Tudor Road, Canterbury","£285,000        "
5 bedroom semi-detached house for sale,"Stone Road, Broadstairs, CT10","£725,000        "
3 bedroom apartment for sale,"Mill Race, Dover, CT17","£400,000        "
6 bedroom block of apartments for sale,Margate,"£600,000        "
9 bedroom block of apartments for sale,Margate,"£888,000        "
10 bedroom block of apartments for sale,Margate,"£1,125,000        "
4 bedroom end of terrace house for sale,"Mortimer Street, Herne Bay, CT6","£375,000        "
5 bedroom semi-detached house for sale,"Dumpton Farm House, Ramsgate Road, Broadstairs","£685,000        "
4 bedroom detached house for sale,"Kittiwake Close, Herne Bay, Kent","£600,000        "
4 bedroom detached house for sale,Broadstairs,"£595,000        "
6 bedroom terraced house for sale,"Godwin Road, Cliftonville, Margate, Kent","£700,000        "
6 bedroom terraced house for sale,"Godwin Road, Cliftonville, Margate, Kent","£462,500        "
3 bedroom terraced house for sale,"Rodney Street, Ramsgate, Kent","£435,000        "
3 bedroom terraced house for sale,"Rodney Street, Ramsgate, Kent","£287,500        "
3 bedroom detached house for sale,"Teynham Road, Whitstable","£500,000        "
1 bedroom apartment for sale,"Elizabeth Court, Westbrook Gardens, CT9","£290,000        "
2 bedroom apartment for sale,"Elizabeth Court, Westbrook Gardens, CT9","£400,000        "
2 bedroom apartment for sale,"Elizabeth Court, Westbrook Gardens, CT9","£375,000        "
2 bedroom flat for sale,"Canterbury Road, Margate","£245,000        "
2 bedroom apartment for sale,"Elizabeth Court, Westbrook Gardens, CT9","£400,000        "
2 bedroom apartment for sale,"Elizabeth Court, Westbrook Gardens, CT9","£350,000        "
2 bedroom apartment for sale,"Elizabeth Court, Westbrook Gardens, CT9","£350,000        "
2 bedroom apartment for sale,"Elizabeth Court, Westbrook Gardens, CT9","£280,000        "
2 bedroom apartment for sale,"Elizabeth Court, Westbrook Gardens, CT9","£290,000        "
2 bedroom apartment for sale,"Elizabeth Court, Westbrook Gardens, CT9","£380,000        "
2 bedroom apartment for sale,"Elizabeth Court, Westbrook Gardens, CT9","£475,000        "
5 bedroom detached house for sale,"Picton Road, Ramsgate","£499,995        "
2 bedroom apartment for sale,"Elizabeth Court, Westbrook Gardens, CT9","£450,000        "
1 bedroom apartment for sale,"Newington Road, Ramsgate","£150,000        "
2 bedroom flat for sale,"Edgar Road, Cliftonville, Margate","£150,000        "
3 bedroom detached bungalow for sale,"Gresham Avenue, Westbrook, Margate","£650,000        "
1 bedroom flat for sale,"Homespire House, Canterbury, CT1 2AB","£105,000        "
4 bedroom detached house for sale,"The Street, Eythorne, Dover","£995,000        "
2 bedroom apartment for sale,"North Foreland Estate, Broadstairs, Kent","£500,000        "
2 bedroom flat for sale,"St. Cuby Cliff Promenade, Broadstairs, Kent, CT10","£500,000        "
2 bedroom flat for sale,"Strangers Lane, Canterbury, Kent","£250,000        "
2 bedroom flat for sale,"Strangers Lane, Canterbury, Kent","£165,500        "
3 bedroom semi-detached house for sale,"Astrid Road, Walmer, Deal, CT14","£300,000        "
1 bedroom flat for sale,"Darwin Court, Harold Road, Margate","£50,000        "
5 bedroom detached house for sale,"Rayham Road, Whitstable, Kent","£950,000        "
5 bedroom detached house for sale,"Rayham Road, Whitstable, Kent","£627,500        "
6 bedroom house for sale,"The Foreland, Canterbury","£725,000        "
4 bedroom detached house for sale,"Maydowns Road, Chestfield, Whitstable, Kent","£675,000        "
3 bedroom semi-detached house for sale,"Manley Close, Whitfield, Dover, Kent","£244,500        "
3 bedroom semi-detached house for sale,"Manley Close, Whitfield, Dover, Kent","£370,000        "
2 bedroom park home for sale,"Reach Road, St. Margarets-At-Cliffe, CT15","£99,950        "
4 bedroom detached house for sale,"Church Lane, Canterbury","£795,000        "
3 bedroom semi-detached house for sale,"Old Park Avenue, Canterbury","£280,000        "
3 bedroom semi-detached house for sale,"Star Lane Link,","£379,995        "
3 bedroom terraced house for sale,"Star Lane Link,","£339,995        "
5 bedroom detached house for sale,"Hillside Road, Whitstable, CT5","£1,500,000        "
3 bedroom semi-detached house for sale,"Sea Street, Herne Bay","£265,000        "
4 bedroom detached house for sale,"Primrose Way, Chestfield, Whitstable","£500,000        "
1 bedroom property for sale,"Harold Road, Margate","£85,000        "
1 bedroom retirement property for sale,"Richmond Street, Herne Bay","£170,000        "
1 bedroom apartment for sale,"Plains Of Waterloo, Ramsgate","£120,000        "
2 bedroom detached bungalow for sale,"Cross Road, Birchington, Kent","£450,000        "
2 bedroom detached bungalow for sale,"Cross Road, Birchington, Kent","£297,500        "
1 bedroom house for sale,"Millyard Road, Aylesham, Canterbury, Kent, CT3","£230,000        "
4 bedroom semi-detached house for sale,Monkton Street,"£525,000        "
1 bedroom apartment for sale,"Fortuna Court, 173 High Street, Ramsgate, Kent, CT11","£90,000        "
3 bedroom maisonette for sale,"Harbour Street, Whitstable, Kent","£350,000        "
4 bedroom bungalow for sale,"Rydal Avenue, Ramsgate","£525,000        "
7 bedroom detached house for sale,"Ramsgate Road, Broadstairs, Kent, CT10","£650,000        "
4 bedroom detached house for sale,"Barnes Way, Herne Bay, Kent","£347,000        "
4 bedroom detached house for sale,"Barnes Way, Herne Bay, Kent","£525,000        "
3 bedroom detached bungalow for sale,"Kemp Road, Whitstable","£475,000        "
3 bedroom semi-detached house for sale,"Wrentham Avenue, Herne Bay","£339,995        "
1 bedroom flat for sale,"9 Royal Crescent, Margate, CT9","£195,000        "
1 bedroom flat for sale,"Victoria Road, Ramsgate, Kent","£147,000        "
1 bedroom flat for sale,"Victoria Road, Ramsgate, Kent","£97,500        "
3 bedroom apartment for sale,"Westwood Drive, Canterbury","£350,000        "
4 bedroom detached bungalow for sale,"Gorse Lane, Herne Bay, Kent","£550,000        "
3 bedroom end of terrace house for sale,"Golden Hill, Whitstable, Kent","£360,000        "
3 bedroom end of terrace house for sale,"Golden Hill, Whitstable, Kent","£238,000        "
3 bedroom detached house for sale,"Minnis Road, Birchington, Kent","£500,000        "
4 bedroom detached house for sale,"Beech Avenue, Chartham","£545,000        "
3 bedroom detached house for sale,"Minnis Road, Birchington, Kent","£330,500        "
2 bedroom terraced house for sale,"Abbey Court, Westgate-On-Sea","£260,000        "
3 bedroom end of terrace house for sale,"Bell Avenue, Canterbury","£425,000        "
3 bedroom detached bungalow for sale,"1 Northbourne Way, Margate","£435,000        "
2 bedroom apartment for sale,"Truro Road, Ramsgate, Kent","£250,000        "
2 bedroom apartment for sale,"Truro Road, Ramsgate, Kent","£165,500        "
2 bedroom end of terrace house for sale,A Project in Ramsgate CT11 0RE,"£200,000        "
2 bedroom terraced house for sale,"Winchelsea Street, Dover","£200,000        "
2 bedroom end of terrace house for sale,"Dover Road, Walmer, Deal, Kent","£275,000        "
2 bedroom end of terrace house for sale,"Dover Road, Walmer, Deal, Kent","£182,000        "
1 bedroom apartment for sale,"Richmond Street, Herne Bay, Kent","£185,000        "
1 bedroom apartment for sale,"Richmond Street, Herne Bay, Kent","£122,500        "
4 bedroom bungalow for sale,"St. Vincent Road, St Margarets-At-Cliffe, Dover, Kent","£429,500        "
3 bedroom terraced house for sale,"Church Path, Deal","£475,000        "
1 bedroom apartment for sale,"St Oswalds - 74 New Street, Sandwich","£200,000        "
3 bedroom detached bungalow for sale,"Smugglers Way, Birchington, Kent, CT7","£699,999        "
2 bedroom flat for sale,"Tannery Way North, Canterbury, Kent, CT1 2FH","£230,000        "
6 bedroom house for sale,"Nelson Crescent, Ramsgate, Kent","£1,450,000        "
5 bedroom detached house for sale,"Preston Meadows, Preston, Canterbury, Kent","£1,750,000        "
3 bedroom semi-detached house for sale,"Sussex close, Herne bay","£370,000        "
3 bedroom semi-detached house for sale,"Norton Drive, Minster, Ramsgate, Kent, CT12","£350,000        "
5 bedroom town house for sale,"Kent Terrace, Ramsgate","£700,000        "
3 bedroom detached bungalow for sale,"The Street, Guston, Dover","£425,000        "
1 bedroom flat for sale,"Albion Hill, Ramsgate","£200,000        "
2 bedroom apartment for sale,"The Bread Factory 14 Millers Hill, Ramsgate, CT11","£350,000        "
1 bedroom ground floor flat for sale,"Templar Street , Dover","£125,000        "
5 bedroom detached house for sale,"Downs View Way, Chartham, Canterbury, Kent","£850,000        "
5 bedroom detached house for sale,"High Street, Ramsgate","£625,000        "
3 bedroom flat for sale,"Tennyson Avenue, Canterbury, CT1","£180,000        "
3 bedroom semi-detached bungalow for sale,"Highfield Road, Ramsgate, Kent","£375,000        "
3 bedroom semi-detached house for sale,"St. James Park Road, Margate","£325,000        "
1 bedroom flat for sale,"Magdalen Court, Ersham Road, Canterbury, CT1","£140,000        "
6 bedroom terraced house for sale,"High Street, Ramsgate","£795,000        "
2 bedroom flat for sale,"The Old Post Office, 2 Stour Street, Canterbury, CT1","£350,000        "
1 bedroom apartment for sale,"High Street, Whitstable, Kent","£230,000        "
2 bedroom bungalow for sale,"Nevill Gardens, Walmer, Deal, CT14","£375,000        "
2 bedroom end of terrace house for sale,"Dour Street, Dover, CT16","£220,000        "
1 bedroom retirement property for sale,"Homespire House, Knotts Lane, Canterbury, CT1","£100,000        "
2 bedroom terraced house for sale,"Cox Hill, Shepherdswell, Dover, CT15","£325,000        "
2 bedroom apartment for sale,"South Eastern Road, Ramsgate, Kent","£260,000        "
2 bedroom apartment for sale,"South Eastern Road, Ramsgate, Kent","£172,000        "
1 bedroom flat for sale,"Royal Crescent, Margate","£180,000        "
1 bedroom flat for sale,"Parham Road, Canterbury, CT1","£50,000        "
4 bedroom detached house for sale,"The Ridings, Cliftonville, Margate","£750,000        "
5 bedroom detached house for sale,"Kingsgate Avenue, Broadstairs","£999,995        "
3 bedroom detached house for sale,"Bushy Hill Road, Westbere, Canterbury","£900,000        "
4 bedroom semi-detached house for sale,"Queens Gate Road, Ramsgate","£500,000        "
3 bedroom semi-detached house for sale,"Green Lane, Broadstairs","£450,000        "
2 bedroom flat for sale,"Market Place, Aylesham, Canterbury, CT3","£170,000        "
3 bedroom terraced house for sale,"Matthews Road, Herne Bay","£310,000        "
2 bedroom terraced house for sale,"Coronation Crescent, Garlinge, Margate","£275,000        "
2 bedroom terraced house for sale,"Strand Street, Sandwich, Kent","£500,000        "
1 bedroom flat for sale,"St. Andrews Close, Canterbury, Kent, CT1","£170,000        "
4 bedroom detached house for sale,"Canterbury Road, Margate","£495,000        "
3 bedroom semi-detached house for sale,"East Street, Herne Bay","£499,995        "
4 bedroom detached house for sale,"Chilton Avenue, Temple Ewell, CT16","£699,950        "
4 bedroom semi-detached house for sale,"Orchard Gardens, Westbrook, Margate, Kent","£450,000        "
4 bedroom semi-detached house for sale,"Orchard Gardens, Westbrook, Margate, Kent","£297,500        "
2 bedroom flat for sale,"Wynn Road, Whitstable","£300,000        "
4 bedroom detached house for sale,"Molehill Road, Chestfield, Whitstable","£945,000        "
3 bedroom flat for sale,"The Gateway, Dover, Kent","£299,500        "
3 bedroom flat for sale,"The Gateway, Dover, Kent","£198,000        "
2 bedroom apartment for sale,"New Dover Road, Canterbury","£245,000        "
4 bedroom house for sale,"Vale Road, Ramsgate","£575,000        "
4 bedroom bungalow for sale,"Cliff Avenue, Beltinge","£580,000        "
6 bedroom detached house for sale,"Oxney, St. Margarets-At-Cliffe, Dover, Kent","£3,600,000        "
6 bedroom detached house for sale,"Oxney, St. Margarets-At-Cliffe, Dover, Kent","£4,500,000        "
3 bedroom detached bungalow for sale,"Epple Road, Birchington, Kent","£425,000        "
3 bedroom detached bungalow for sale,"Epple Road, Birchington, Kent","£281,000        "
3 bedroom semi-detached house for sale,"Arlington Gardens, Margate","£360,000        "
Studio flat for sale,"Spencer Square, Ramsgate, Kent","£70,000        "
5 bedroom detached house for sale,Cliffsend,"£795,000        "
3 bedroom semi-detached house for sale,"Masons Rise, Broadstairs","£485,000        "
2 bedroom cottage for sale,"Belmont, Walmer, CT14","£275,000        "
5 bedroom detached house for sale,"Picton Road, Ramsgate","£499,995        "
3 bedroom detached bungalow for sale,"Langdon Close, St Margaret`s At Cliffe","£535,000        "
3 bedroom apartment for sale,"Minnis Road, Birchington, Kent, CT7","£280,000        "
2 bedroom end of terrace house for sale,"Church Path, Deal","£280,000        "
5 bedroom semi-detached house for sale,"Canterbury Road, HERNE BAY, CT6","£625,000        "
2 bedroom flat for sale,"Market Place, Aylesham, Canterbury, CT3","£170,000        "
3 bedroom detached house for sale,"London Road, Ramsgate","£525,000        "
2 bedroom terraced house for sale,"Claremont Mews, Birchington","£375,000        "
3 bedroom terraced house for sale,"Barton Mill Road, Canterbury","£399,500        "
3 bedroom house for sale,"Castle Drive, Westwood, Margate","£295,000        "
2 bedroom terraced house for sale,"Goodwin Close, Deal, CT14","£299,995        "
1 bedroom flat for sale,"29 Dane HIll, Margate, CT9","£195,000        "
2 bedroom terraced house for sale,"King Street, Fordwich","£375,000        "
4 bedroom detached house for sale,"Woodcote, Chestfield, Whitstable","£645,000        "
3 bedroom terraced house for sale,"Park Lane, Birchington","£370,000        "
2 bedroom apartment for sale,"Bellflower Mews, Canterbury","£260,000        "
2 bedroom flat for sale,"Gordon Road, Cliftonville, Margate","£185,000        "
4 bedroom detached bungalow for sale,"Nash Road, Ash, Canterbury","£650,000        "
1 bedroom flat for sale,"Sweyn Road, Cliftonville, Margate","£185,000        "
3 bedroom detached house for sale,"Clare Road, Tankerton, Whitstable","£535,000        "
4 bedroom end of terrace house for sale,"Richmond Avenue, Cliftonville","£475,000        "
2 bedroom semi-detached bungalow for sale,"Graystone Road, Whitstable","£400,000        "
2 bedroom semi-detached bungalow for sale,"Graystone Road, Whitstable, Kent","£400,000        "
3 bedroom terraced house for sale,"Tivoli Road, Margate","£315,000        "
3 bedroom detached house for sale,"Cornelis Drive, Minster, Ramsgate, Kent","£425,000        "
2 bedroom end of terrace house for sale,"Church Path, Deal","£280,000        "
3 bedroom detached house for sale,"Cornelis Drive, Minster, Ramsgate, Kent","£281,000        "
1 bedroom ground floor flat for sale,"17 Marine Parade, Tankerton, Whitstable","£350,000        "
6 bedroom detached house for sale,"Spenser Road, Herne Bay, CT6","£665,000        "
3 bedroom detached house for sale,"Amos Close, Herne Bay","£440,000        "
2 bedroom terraced house for sale,"Copperhurst Walk, Margate","£320,000        "
5 bedroom detached house for sale,"Dargate Road, Yorkletts, Whitstable","£850,000        "
3 bedroom end of terrace house for sale,"Staple Street, Hernhill, Faversham, Kent","£314,000        "
3 bedroom end of terrace house for sale,"Staple Street, Hernhill, Faversham, Kent","£475,000        "
2 bedroom flat for sale,"72 Dumpton Park Drive, Broadstairs, CT10","£410,000        "
3 bedroom house for sale,"College Road, Margate","£350,000        "
5 bedroom detached house for sale,"Ashford Road, Chartham, Canterbury","£950,000        "
1 bedroom flat for sale,"Kentish House, Parham Road, Canterbury, Kent, CT1","£48,000        "
2 bedroom detached house for sale,"Front Street, Ringwould, Deal","£425,000        "
5 bedroom detached house for sale,"The Droveway, St. Margarets Bay, Dover","£800,000        "
6 bedroom detached house for sale,"Sandwich Road, Eastry, Kent","£1,850,000        "
4 bedroom town house for sale,"Blenheim Road,Deal,CT14 7AJ","£850,000        "
2 bedroom terraced house for sale,"Nelson Road, Whitstable","£550,000        "
2 bedroom terraced house for sale,"Victoria Avenue, Margate","£295,000        "
2 bedroom semi-detached bungalow for sale,"York Road, Herne Bay","£325,000        "
2 bedroom apartment for sale,"Vere Road, Broadstairs, Kent","£264,500        "
2 bedroom apartment for sale,"Vere Road, Broadstairs, Kent","£400,000        "
7 bedroom terraced house for sale,"Westgate Bay Avenue, Westgate-On-Sea, Kent","£900,000        "
3 bedroom detached bungalow for sale,"Cross Road, Walmer, Deal, Kent","£400,000        "
3 bedroom detached bungalow for sale,"Cross Road, Walmer, Deal, Kent","£264,500        "
2 bedroom apartment for sale,"Ashton Villas, St Mary's Road, Broadstairs","£275,000        "
2 bedroom semi-detached bungalow for sale,"Helmdon Close, Ramsgate","£310,000        "
2 bedroom apartment for sale,Broadstairs,"£395,000        "
2 bedroom detached bungalow for sale,"Faversham Road, Seasalter, Whitstable","£585,000        "
4 bedroom town house for sale,Large Period Property Near the Beach in New Street Deal CT14 6JY,"£900,000        "
3 bedroom semi-detached house for sale,"Augustine Road, Minster, Ramsgate","£400,000        "
4 bedroom end of terrace house for sale,"Priory Road, Dover, Kent, CT17","£350,000        "
3 bedroom terraced house for sale,"Canterbury Road, Birchington","£335,000        "
4 bedroom bungalow for sale,"Detached Property with Amazing Views, Ripple, Deal CT14 8JL","£550,000        "
5 bedroom detached house for sale,"Clapham Hill, Whitstable, Kent","£2,200,000        "
3 bedroom semi-detached house for sale,"Merlin Avenue, Whitfield, Dover, Kent, CT16","£375,000        "
4 bedroom detached house for sale,"Jubilee Road, Littlebourne, Canterbury","£550,000        "
5 bedroom detached house for sale,"Kings Avenue, Birchington","£850,000        "
2 bedroom apartment for sale,"Elizabeth Court, Westbrook Gardens, CT9","£375,000        "
1 bedroom block of apartments for sale,"Elizabeth Court, Westbrook Gardens, Margate, CT9","£250,000        "
2 bedroom block of apartments for sale,"Elizabeth Court, Westbrook Gardens, Margate, CT9","£350,000        "
2 bedroom block of apartments for sale,"Elizabeth Court, Westbrook Gardens, Margate, CT9","£400,000        "
2 bedroom block of apartments for sale,"Elizabeth Court, Westbrook Gardens, Margate, CT9","£425,000        "
5 bedroom detached house for sale,"Laudin House, High Street, Bridge","£1,000,000        "
9 bedroom house for sale,"Augusta Road, Ramsgate","£650,000        "
5 bedroom terraced house for sale,"Grange Road, Ramsgate","£450,000        "
3 bedroom semi-detached house for sale,"Laureston Place, Dover","£375,000        "
5 bedroom detached house for sale,"Lanthorne Road, Broadstairs","£1,295,000        "
4 bedroom detached bungalow for sale,"Shalmsford Street, Chartham, Canterbury","£450,000        "
3 bedroom terraced house for sale,"Elizabeth Carter Avenue, Deal, CT14","£269,950        "
2 bedroom semi-detached house for sale,"Grasmere Gardens, Chestfield, Whitstable, Kent","£350,000        "
3 bedroom terraced house for sale,"Swallow Court, Herne Bay","£325,000        "
3 bedroom end of terrace house for sale,"St Stephen`s Close, Canterbury","£295,000        "
5 bedroom semi-detached house for sale,"St. James Avenue, Ramsgate","£380,000        "
2 bedroom flat for sale,"High Street, St. Lawrence, Ramsgate, CT11","£190,000        "
1 bedroom flat for sale,"Beach Road, Westgate-On-Sea","£140,000        "
3 bedroom terraced house for sale,"Orchard Street, Canterbury","£435,000        "
5 bedroom detached bungalow for sale,"Chestnut Drive, Herne Bay","£470,000        "
3 bedroom semi-detached house for sale,"Horselees Road, Boughton-under-Blean","£425,000        "
5 bedroom end of terrace house for sale,"College Road, Margate, Kent","£375,000        "
3 bedroom semi-detached house for sale,"Old Bridge Road, Whitstable, CT5","£410,000        "
3 bedroom detached bungalow for sale,"Shepherds Walk, Chestfield, Whitstable","£540,000        "
3 bedroom detached house for sale,"Chequer Lane,","£404,995        "
4 bedroom detached house for sale,"Chequer Lane,","£474,995        "
2 bedroom flat for sale,"Raymond Avenue, Canterbury, Kent, CT1","£265,000        "
3 bedroom detached house for sale,"Springfield Road, Cliftonville, Margate","£535,000        "
3 bedroom detached house for sale,"Manor Road, Deal","£475,000        "
3 bedroom flat for sale,"Ocean Drive, Broadstairs, Kent","£1,200,000        "
4 bedroom detached bungalow for sale,"Daimler Avenue, Herne Bay, CT6","£500,000        "
2 bedroom semi-detached house for sale,"Margate Road, Broomfield, Herne Bay, Kent","£325,000        "
2 bedroom semi-detached house for sale,"Margate Road, Broomfield, Herne Bay, Kent","£215,000        "
1 bedroom retirement property for sale,"Mansfield Court, Bridge","£145,000        "
2 bedroom retirement property for sale,"Beechwood Avenue, Deal, CT14","£200,000        "
2 bedroom bungalow for sale,"Preston Parade, Seasalter, CT5","£995,000        "
3 bedroom semi-detached house for sale,"Cliftonville Avenue, Margate, CT9","£525,000        "
3 bedroom semi-detached bungalow for sale,"Park Avenue, Birchington","£350,000        "
2 bedroom retirement property for sale,"Beechwood Avenue, Deal, CT14","£200,000        "
2 bedroom bungalow for sale,"Preston Parade, Seasalter, CT5","£995,000        "
3 bedroom semi-detached house for sale,"Cliftonville Avenue, Margate, CT9","£525,000        "
3 bedroom character property for sale,"Guilton, Ash, Canterbury, Kent","£495,000        "
3 bedroom character property for sale,"Guilton, Ash, Canterbury, Kent","£327,000        "
2 bedroom flat for sale,"New Dover Road, Canterbury","£200,000        "
4 bedroom detached house for sale,"Avenue Gardens, Cliftonville","£620,000        "
2 bedroom detached house for sale,"Foreland Avenue, Cliftonville, Margate","£675,000        "
2 bedroom flat for sale,"Northdown Road, Margate","£100,000        "
2 bedroom terraced house for sale,"Tower Hill, Dover, CT17","£180,000        "
4 bedroom house for sale,"St. Lawrence Avenue, Ramsgate","£645,000        "
4 bedroom detached house for sale,"Genesta Avenue, Whitstable","£1,100,000        "
2 bedroom flat for sale,"Western Road, Deal","£200,000        "
3 bedroom detached bungalow for sale,"Nethercourt Gardens, Ramsgate","£350,000        "
1 bedroom retirement property for sale,"Beechwood Avenue, Deal, CT14","£169,950        "
4 bedroom detached house for sale,"Epple Bay Avenue, Birchington, Kent","£1,000,000        "
2 bedroom apartment for sale,"Ethelbert Terrace, Margate","£175,000        "
2 bedroom apartment for sale,"High Street, Whitstable","£280,000        "
2 bedroom bungalow for sale,"Ivanhoe Road, Herne Bay","£400,000        "
1 bedroom detached bungalow for sale,"Canterbury Road, Herne Bay","£244,950        "
2 bedroom terraced house for sale,"Borstal Hill, Whitstable","£450,000        "
3 bedroom detached house for sale,"Rye Lane, Dover, Kent","£400,000        "
3 bedroom semi-detached house for sale,Kingsdown,"£460,000        "
3 bedroom terraced house for sale,"Astley Avenue, Dover, Kent","£250,000        "
2 bedroom flat for sale,"North Foreland Road, Broadstairs","£450,000        "
3 bedroom terraced house for sale,"Astley Avenue, Dover, Kent","£165,500        "
4 bedroom detached house for sale,"Richborough Close, Margate","£465,000        "
4 bedroom detached house for sale,"Salisbury Road, Walmer, Deal","£575,000        "
5 bedroom detached house for sale,"Marine Parade, Tankerton, Whitstable","£3,250,000        "
2 bedroom detached bungalow for sale,"Baliol Road, Tankerton, Whitstable","£499,550        "
3 bedroom semi-detached house for sale,"Burnan Road, Tankerton, Whitstable","£425,000        "
3 bedroom semi-detached house for sale,"Wheatsheaf Square, Whitfield, Dover, Kent, CT16","£325,000        "
1 bedroom flat for sale,"St. Mildreds Road, Ramsgate, Kent, CT11","£180,000        "
1 bedroom flat for sale,"Newlands Road, Ramsgate, Kent, CT12","£130,000        "
2 bedroom detached bungalow for sale,"Anne Close, Birchington","£409,995        "
3 bedroom detached house for sale,"Grenham Bay Avenue, Birchington","£625,000        "
4 bedroom semi-detached house for sale,"Graystone Road, Tankerton, Whitstable","£825,000        "
4 bedroom detached house for sale,"Nethercourt Farm Road, Ramsgate, Kent","£575,000        "
4 bedroom detached house for sale,"Nethercourt Farm Road, Ramsgate, Kent","£380,000        "
4 bedroom detached house for sale,"The Foreland, Canterbury, Kent, CT1","£650,000        "
2 bedroom flat for sale,"Wellington Crescent, Ramsgate","£200,000        "
3 bedroom detached house for sale,"School Lane, Stourmouth, Canterbury","£480,000        "
2 bedroom detached bungalow for sale,"Linksfield Road, Westgate-On-Sea","£330,000        "
5 bedroom semi-detached house for sale,"Seapoint Road, Broadstairs, CT10","£825,000        "
3 bedroom semi-detached house for sale,"Broad Oak Road, Canterbury","£350,000        "
2 bedroom terraced house for sale,"Church Road, Broadstairs","£449,995        "
3 bedroom terraced house for sale,"Chevalier Road, Dover, CT17","£260,000        "
4 bedroom semi-detached house for sale,"Forty Acres Road, Canterbury, Canterbury","£395,000        "
2 bedroom detached house for sale,"Cuthbert Road, Westgate-on-sea, Kent","£415,000        "
3 bedroom semi-detached bungalow for sale,"Kimberley Grove, Seasalter, Whitstable, CT5","£400,000        "
2 bedroom semi-detached house for sale,"Wynn Road, Whitstable, Kent","£281,000        "
3 bedroom detached house for sale,East Studdal,"£490,000        "
5 bedroom detached house for sale,"The Kingsdown, Plot 54, Millers Retreat, Station Road, Walmer","£560,000        "
1 bedroom apartment for sale,"Sussex Street, Ramsgate","£125,000        "
3 bedroom semi-detached house for sale,"Picton Road, Ramsgate","£365,000        "
2 bedroom bungalow for sale,"Detling Avenue, Broadstairs","£500,000        "
6 bedroom detached house for sale,"Monkton Road, Minster, Ramsgate","£675,000        "
4 bedroom detached bungalow for sale,"Botany Road, Broadstairs","£875,000        "
2 bedroom flat for sale,"Leelands House, Grams Road, Deal, Kent, CT14","£350,000        "
2 bedroom terraced house for sale,"Borstal Hill, Whitstable","£365,000        "
4 bedroom detached house for sale,"Cherry Orchard, Chestfield, Whitstable, Kent","£535,000        "
4 bedroom detached house for sale,"Cherry Orchard, Chestfield, Whitstable, Kent","£353,500        "
1 bedroom ground floor flat for sale,"George Roche Road, Canterbury","£190,000        "
1 bedroom apartment for sale,"Barton Court, Sussex Street","£125,000        "
1 bedroom flat for sale,"Effingham Street, Ramsgate","£185,000        "
3 bedroom semi-detached bungalow for sale,"Highfield Road, Ramsgate","£375,000        "
15 bedroom flat for sale,"High Street, Margate","£825,000        "
3 bedroom bungalow for sale,"Windmill Road, Herne Bay","£550,000        "
1 bedroom flat for sale,"Kentish House, Parham Road, Canterbury, Kent, CT1","£60,000        "
1 bedroom flat for sale,"Addington Road, Margate","£180,000        "
1 bedroom flat for sale,"Addington Road, Margate","£160,000        "
1 bedroom flat for sale,"Addington Road, Margate","£160,000        "
5 bedroom terraced house for sale,"Augusta Road, Ramsgate","£850,000        "
2 bedroom character property for sale,"Durlock Road, Staple, Canterbury, Kent","£385,000        "
4 bedroom detached house for sale,"Whitstable Heights, Whitstable","£565,000        "
2 bedroom character property for sale,"Durlock Road, Staple, Canterbury, Kent","£254,500        "
3 bedroom detached house for sale,"Willow Woods Road, Little Mongeham","£650,000        "
1 bedroom flat for sale,"Marine Gardens, Margate","£145,000        "
6 bedroom terraced house for sale,"Grosvenor Place, Margate","£650,000        "
2 bedroom house for sale,"St. Marys, Sandwich","£325,000        "
3 bedroom semi-detached house for sale,"Westover Gardens, Broadstairs, Kent","£231,500        "
3 bedroom semi-detached house for sale,"Westover Gardens, Broadstairs, Kent","£350,000        "
1 bedroom apartment for sale,"Fitzroy Road, Whitstable, CT5","£325,000        "
4 bedroom semi-detached house for sale,"Margate Road, Ramsgate, Kent","£575,000        "
4 bedroom semi-detached house for sale,"Margate Road, Ramsgate, Kent","£380,000        "
5 bedroom detached house for sale,"Sandwich Road, Eastry","£715,000        "
2 bedroom semi-detached bungalow for sale,"Russell Drive, Whitstable","£350,000        "
8 bedroom detached house for sale,"Longtye Drive, Chestfield, Whitstable, Kent","£950,000        "
8 bedroom detached house for sale,"Longtye Drive, Chestfield, Whitstable, Kent","£627,500        "
4 bedroom house for sale,"Jubilee Road, Worth, Deal","£950,000        "
1 bedroom retirement property for sale,"Abbots Lodge, Roper Road","£150,000        "
5 bedroom detached house for sale,"Dumpton Park Drive, Broadstairs, Kent","£900,000        "
5 bedroom detached house for sale,"Nargate Street, Littlebourne, Kent","£1,375,000        "
2 bedroom apartment for sale,"Royal Sea Bathing, Westbrook, Margate","£225,000        "
1 bedroom ground floor flat for sale,"Knotts Lane, Canterbury","£230,000        "
1 bedroom ground floor flat for sale,"Knotts Lane, Canterbury","£240,000        "
1 bedroom ground floor flat for sale,"Knotts Lane, Canterbury","£240,000        "
1 bedroom ground floor flat for sale,"Knotts Lane, Canterbury","£240,000        "
1 bedroom apartment for sale,"Knotts Lane, Canterbury","£240,000        "
3 bedroom semi-detached house for sale,"The Laurels, Littlebourne, Canterbury","£395,000        "
1 bedroom apartment for sale,"Knotts Lane, Canterbury","£235,000        "
2 bedroom apartment for sale,"Knotts Lane, Canterbury","£295,000        "
2 bedroom apartment for sale,"Knotts Lane, Canterbury","£320,000        "
2 bedroom apartment for sale,"Knotts Lane, Canterbury","£310,000        "
10 bedroom detached house for sale,"Longtye Drive, Chestfield, Whitstable","£950,000        "
3 bedroom semi-detached house for sale,"Adelaide Road, Elvington","£250,000        "
2 bedroom apartment for sale,"Devonshire Terrace, Broadstairs, Kent","£275,000        "
2 bedroom apartment for sale,"Devonshire Terrace, Broadstairs, Kent","£182,000        "
1 bedroom flat for sale,"Barton Mill Court, Canterbury, CT2 7JZ","£130,000        "
4 bedroom end of terrace house for sale,"London Road, Canterbury, Kent","£825,000        "
6 bedroom detached bungalow for sale,"Lawn Road, Broadstairs, Kent","£700,000        "
3 bedroom flat for sale,"Royal Crescent, Ramsgate","£475,000        "
5 bedroom detached house for sale,"Sadlers Hill, Goodnestone, Canterbury, Kent","£1,500,000        "
3 bedroom semi-detached house for sale,"Victoria Road, Broadstairs, Kent, CT10","£320,000        "
4 bedroom detached house for sale,"Carlton Avenue, Broadstairs, Kent, CT10","£625,000        "
3 bedroom detached house for sale,"Cranbrook Close, Margate, Kent, CT9","£385,000        "
2 bedroom apartment for sale,"Eastern Esplanade, Margate, Kent, CT9","£260,000        "
3 bedroom house for sale,"The Mews, Waldershare, Dover","£365,000        "
3 bedroom semi-detached house for sale,"Millstream Close, Whitstable","£495,000        "
3 bedroom semi-detached house for sale,"The Howard, Plot 85, Millers Retreat, Station Road, Walmer","£395,000        "
3 bedroom semi-detached house for sale,"Fordwich Place, Sandwich","£350,000        "
3 bedroom terraced house for sale,"Fitzroy Avenue, Margate, Kent","£300,000        "
3 bedroom terraced house for sale,"Fitzroy Avenue, Margate, Kent","£198,500        "
3 bedroom town house for sale,"Waterside Drive, Westgate on Sea","£499,995        "
3 bedroom terraced house for sale,"Westfield Road, Margate","£335,000        "
2 bedroom flat for sale,"Grand Mansions, Broadstairs","£325,000        "
3 bedroom semi-detached house for sale,"Margate Road, Ramsgate, Kent, CT12","£325,000        "
1 bedroom flat for sale,"Barton Mill Court, Canterbury, CT2 7JZ","£129,950        "
3 bedroom detached house for sale,"Millers Hill, Ramsgate, Kent","£385,000        "
3 bedroom detached house for sale,"Millers Hill, Ramsgate, Kent","£254,500        "
1 bedroom flat for sale,"Olympia Way, Whitstable, Kent","£185,000        "
1 bedroom flat for sale,"Olympia Way, Whitstable, Kent","£122,500        "
4 bedroom detached house for sale,"Herne Bay Road,","£445,995        "
3 bedroom semi-detached house for sale,"Herne Bay Road,","£385,995        "
3 bedroom semi-detached house for sale,"Herne Bay Road,","£369,995        "
2 bedroom detached house for sale,"Sidney Grove, Herne Bay, CT6","£425,000        "
6 bedroom detached house for sale,"Blean Hill, Blean, Canterbury","£2,250,000        "
5 bedroom semi-detached house for sale,"Elms Avenue, Ramsgate","£450,000        "
2 bedroom bungalow for sale,"Sycamore Close, Margate","£280,000        "
3 bedroom detached bungalow for sale,"Milner Road, Seasalter, Whitstable, Kent","£520,000        "
3 bedroom detached bungalow for sale,"Milner Road, Seasalter, Whitstable, Kent","£343,500        "
2 bedroom flat for sale,"Beach Road, Westgate-On-Sea, Kent","£200,000        "
2 bedroom flat for sale,"Beach Road, Westgate-On-Sea, Kent","£132,500        "
3 bedroom terraced house for sale,"Somerset Road, Walmer, Deal, Kent","£340,000        "
3 bedroom terraced house for sale,"Somerset Road, Walmer, Deal, Kent","£225,000        "
3 bedroom semi-detached house for sale,"Barfrestone Road, Eythorne, Dover, CT15","£325,000        "
2 bedroom apartment for sale,"Ethelbert Road, Birchington","£350,000        "
5 bedroom detached house for sale,"Poulton Lane, Ash","£569,000        "
3 bedroom semi-detached bungalow for sale,"Laurensfield, Minster","£525,000        "
3 bedroom semi-detached house for sale,"The Street, Staple","£460,000        "
2 bedroom apartment for sale,"Western Esplanade, Broadstairs, Kent","£350,000        "
2 bedroom apartment for sale,"Western Esplanade, Broadstairs, Kent","£231,500        "
4 bedroom detached house for sale,"Stone Road, Broadstairs, Kent, CT10","£775,000        "
2 bedroom detached bungalow for sale,"Woodland Way, Broadstairs","£550,000        "
2 bedroom flat for sale,Westgate,"£227,000        "
6 bedroom semi-detached house for sale,"Grove Road, Ramsgate","£625,000        "
5 bedroom semi-detached house for sale,"Grove Road, Ramsgate, Kent","£625,000        "
5 bedroom semi-detached house for sale,"Grove Road, Ramsgate, Kent","£413,000        "
5 bedroom house for sale,"Foreland Avenue, Margate","£535,000        "
2 bedroom terraced house for sale,Bridge,"£350,000        "
2 bedroom semi-detached bungalow for sale,"Park Lane, Birchington, Kent","£325,000        "
4 bedroom terraced house for sale,"Nash Lane, Margate","£420,000        "
2 bedroom semi-detached bungalow for sale,Birchington,"£325,000        "
5 bedroom house for sale,"Pegwell Avenue, Ramsgate","£575,000        "
5 bedroom detached house for sale,"Clarendon Road, Dover","£400,000        "
1 bedroom flat for sale,"Athelstan Road, Margate, Kent","£115,000        "
2 bedroom flat for sale,"The Gateway, Dover, CT16","£250,000        "
3 bedroom end of terrace house for sale,"South Street, Whitstable","£375,000        "
2 bedroom house for sale,"Ivy Lane, Canterbury","£285,000        "
2 bedroom terraced house for sale,"Milton Avenue, Margate","£238,000        "
4 bedroom house for sale,"The Broadway, Herne Bay","£550,000        "
4 bedroom detached house for sale,"Reculver Road, Herne Bay","£499,950        "
2 bedroom detached house for sale,"Middle Deal Road, Deal, Kent, CT14","£325,000        "
3 bedroom semi-detached house for sale,"Mellanby Close, Birchington, Kent, CT7","£350,000        "
2 bedroom flat for sale,"Augusta Road, Ramsgate","£200,000        "
2 bedroom flat for sale,"Camden Crescent, Dover, CT16","£245,000        "
1 bedroom flat for sale,Ramsgate,"£250,000        "
4 bedroom detached house for sale,"Major Close, Whitstable","£475,000        "
4 bedroom house for sale,"The Broadway, Herne Bay","£550,000        "
5 bedroom detached house for sale,"The Length, St. Nicholas At Wade, Birchington, Kent","£1,000,000        "
5 bedroom detached house for sale,"The Length, St. Nicholas At Wade, Birchington, Kent","£660,500        "
3 bedroom house for sale,"Hatch Lane, Chartham Hatch, Canterbury","£750,000        "
4 bedroom detached house for sale,"The Broadway, Herne Bay","£550,000        "
4 bedroom house for sale,"Broomfield Road, Herne Bay","£850,000        "
4 bedroom detached house for sale,"Canterbury Road, Herne Bay","£825,000        "
4 bedroom detached house for sale,"Queens Road, Ramsgate, Kent","£695,000        "
4 bedroom detached house for sale,"Eddington Lane, Herne Bay","£895,000        "
1 bedroom flat for sale,"Creine Mill Lane North, Canterbury, CT1","£180,000        "
2 bedroom end of terrace house for sale,"Staplehurst Gardens, Margate, Kent, CT9","£325,000        "
3 bedroom semi-detached house for sale,"Selborne Road, Margate","£340,000        "
1 bedroom apartment for sale,"Stour Court, Sandwich","£170,000        "
4 bedroom semi-detached house for sale,"Swinburne Avenue, Broadstairs","£625,000        "
3 bedroom maisonette for sale,"La Belle Alliance Square, Ramsgate","£275,000        "
4 bedroom semi-detached house for sale,"Douglas Avenue, Whitstable, Kent","£620,000        "
4 bedroom semi-detached house for sale,"Douglas Avenue, Whitstable, Kent","£409,500        "
3 bedroom semi-detached bungalow for sale,"Kimberley Grove, Seasalter, Whitstable, CT5","£400,000        "
5 bedroom detached bungalow for sale,Ramsgate,"£1,250,000        "
4 bedroom terraced house for sale,"Salisbury Road, Dover, Kent","£360,000        "
4 bedroom terraced house for sale,"Salisbury Road, Dover, Kent","£238,000        "
4 bedroom semi-detached house for sale,"Richmond Way,","£372,995        "
2 bedroom retirement property for sale,"Fordwich Place, Sandwich","£125,000        "
3 bedroom detached bungalow for sale,"St Peters Road, Margate","£575,000        "
4 bedroom semi-detached house for sale,"The Warren Drive, Westgate-On-Sea, Kent, CT8","£460,000        "
3 bedroom terraced house for sale,"Newlands Drive, Walmer, Deal, Kent, CT14","£350,000        "
5 bedroom end of terrace house for sale,"Barton Road, Dover","£415,000        "
4 bedroom detached bungalow for sale,"Ridgeway Road, Herne Bay, Kent","£725,000        "
3 bedroom semi-detached house for sale,"All Saints Close, Whitstable","£425,000        "
3 bedroom semi-detached house for sale,"The Street, Adisham, Canterbury","£295,000        "
3 bedroom terraced house for sale,"Church Lane, Canterbury","£500,000        "
3 bedroom semi-detached house for sale,"Pine Tree Avenue, Canterbury, CT2","£250,000        "
1 bedroom retirement property for sale,"Victoria Parade, Ramsgate","£140,000        "
4 bedroom semi-detached house for sale,"London Road, Dover","£425,000        "
3 bedroom detached house for sale,"Spenser Road, Herne Bay, Kent","£415,000        "
3 bedroom detached house for sale,"Spenser Road, Herne Bay, Kent","£274,500        "
4 bedroom detached house for sale,"Pharos Drive, Dover, CT16","£625,000        "
1 bedroom apartment for sale,"Tankerton Road, Whitstable, CT5","£165,000        "
3 bedroom town house for sale,"New Street, St. Dunstans, Canterbury, CT2","£400,000        "
4 bedroom detached house for sale,"Acacia Drive, Hersden, Canterbury, Kent","£425,000        "
4 bedroom detached house for sale,"Acacia Drive, Hersden, Canterbury, Kent","£281,000        "
1 bedroom apartment for sale,"Westmarsh Drive, Palm Bay","£170,000        "
1 bedroom apartment for sale,"Harvest Court, Herne Bay, CT6","£149,995        "
3 bedroom detached bungalow for sale,"Sea View Avenue, Birchington","£630,000        "
3 bedroom terraced house for sale,"Lavender Mews, St. Mildreds, Canterbury","£500,000        "
1 bedroom flat for sale,"Wellington Court, Beechwood Avenue, Deal, Kent, CT14","£160,000        "
3 bedroom end of terrace house for sale,"Star Lane Link,","£369,995        "
3 bedroom detached house for sale,"Avon Close, Canterbury, Kent","£360,000        "
3 bedroom detached house for sale,"Avon Close, Canterbury, Kent","£238,000        "
3 bedroom detached bungalow for sale,"Botany Road, Broadstairs","£495,000        "
3 bedroom bungalow for sale,"Salisbury Road, Walmer, Deal, Kent, CT14","£600,000        "
2 bedroom flat for sale,"The Parade, Birchington, Kent","£350,000        "
2 bedroom flat for sale,"The Parade, Birchington, Kent","£231,500        "
2 bedroom semi-detached bungalow for sale,"Clare Road, Whitstable","£380,000        "
3 bedroom bungalow for sale,"Manor Road, Deal, CT14","£489,995        "
2 bedroom park home for sale,"Whitstable, Kent, CT5","£390,000        "
3 bedroom semi-detached house for sale,"Arlington Gardens, Margate, CT9","£250,000        "
7 bedroom semi-detached house for sale,"Laureston Place, Dover, CT16","£450,000        "
2 bedroom apartment for sale,"Star Lane Link,","£259,995        "
3 bedroom semi-detached house for sale,"Chequer Lane,","£353,995        "
3 bedroom semi-detached house for sale,"Chequer Lane,","£394,995        "
3 bedroom terraced house for sale,"Victoria Street, Whitstable, CT5","£550,000        "
5 bedroom detached bungalow for sale,"Pean Hill, Whitstable","£1,250,000        "
2 bedroom terraced house for sale,"Albert Street, Whitstable, Kent","£400,000        "
2 bedroom terraced house for sale,"Albert Street, Whitstable, Kent","£264,500        "
2 bedroom apartment for sale,"Winchelsea Court , Dover","£135,000        "
2 bedroom ground floor flat for sale,"Morris Avenue, Herne Bay","£339,995        "
4 bedroom semi-detached bungalow for sale,"Oakwood Road, Sturry, Canterbury","£325,000        "
3 bedroom terraced house for sale,"Plaxton Way, Herne Bay, CT6","£340,000        "
2 bedroom detached bungalow for sale,"Strode Park Road, Herne, Herne Bay, Kent","£375,000        "
2 bedroom detached bungalow for sale,"Strode Park Road, Herne, Herne Bay, Kent","£248,000        "
2 bedroom semi-detached house for sale,"Fir Tree Close, Ramsgate","£350,000        "
3 bedroom terraced house for sale,"Plaxton Way, Herne Bay, CT6","£340,000        "
2 bedroom detached bungalow for sale,"Strode Park Road, Herne, Herne Bay, Kent","£375,000        "
2 bedroom detached bungalow for sale,"Strode Park Road, Herne, Herne Bay, Kent","£248,000        "
4 bedroom detached house for sale,"Nursery Close, Whitstable","£700,000        "
4 bedroom detached house for sale,"Nursery Close, Whitstable, Kent","£700,000        "
4 bedroom detached house for sale,"Nursery Close, Whitstable, Kent","£462,500        "
4 bedroom detached house for sale,"Sturry Hill, Sturry, Canterbury, Kent","£625,000        "
4 bedroom detached house for sale,"Sturry Hill, Sturry, Canterbury, Kent","£413,000        "
2 bedroom apartment for sale,"33 London Road, Dover, CT17","£230,000        "
4 bedroom detached house for sale,"Ridgeway Road, Herne Bay, Kent","£975,000        "
1 bedroom cottage for sale,"Dover Road, Walmer, CT14","£239,950        "
1 bedroom flat for sale,"Lucerne Drive, Seasalter","£110,000        "
4 bedroom detached house for sale,"Marley Fields, Hoath, Canterbury, Kent","£850,000        "
3 bedroom detached bungalow for sale,"Millmead Road, Margate","£425,000        "
3 bedroom semi-detached house for sale,"Holness Road, Herne Bay","£389,995        "
2 bedroom apartment for sale,"Bay View Heights, Ethelbert Road, Birchington, Kent, CT7","£350,000        "
5 bedroom house for sale,"Golf Road, Deal","£750,000        "
2 bedroom flat for sale,"Out Downs, Deal, Kent","£205,000        "
2 bedroom flat for sale,"Out Downs, Deal, Kent","£310,000        "
4 bedroom terraced house for sale,"The Chase, Ramsgate, Montefiore Avenue","£435,000        "
2 bedroom terraced house for sale,"Alexandra Road, Ramsgate, Kent, CT11","£160,000        "
2 bedroom apartment for sale,"Tankerton Road, Tankerton, Whitstable","£245,000        "
3 bedroom terraced house for sale,"Longfield Road, Dover, Kent","£245,000        "
2 bedroom detached bungalow for sale,"Queens Avenue, Birchington, Kent","£700,000        "
1 bedroom flat for sale,"Bognor Drive, Herne Bay","£220,000        "
4 bedroom detached house for sale,"Mongeham Church Close, Great Mongeham, Deal, Kent, CT14","£695,000        "
4 bedroom house for sale,"Holland Close, Broadstairs","£875,000        "
4 bedroom detached house for sale,"Winchester Gardens, Canterbury, Kent","£750,000        "
4 bedroom detached house for sale,"Winchester Gardens, Canterbury, Kent","£495,500        "
3 bedroom detached bungalow for sale,"Woodrow Chase, Herne Bay, CT6","£650,000        "
3 bedroom detached bungalow for sale,"Grand Drive, Herne Bay","£600,000        "
3 bedroom detached bungalow for sale,"Linden Avenue, Herne Bay","£550,000        "
5 bedroom detached house for sale,"Tankerton Road, Tankerton, Whitstable","£1,500,000        "
4 bedroom semi-detached house for sale,"Northdown Park Road, Margate, Kent","£550,000        "
4 bedroom semi-detached house for sale,"Northdown Park Road, Margate, Kent","£363,500        "
3 bedroom detached bungalow for sale,"Sondes Close, Herne, Herne Bay, Kent","£520,000        "
3 bedroom detached bungalow for sale,"Sondes Close, Herne, Herne Bay, Kent","£343,500        "
3 bedroom terraced house for sale,"Walpole Cottage, The Friars, Canterbury","£600,000        "
2 bedroom retirement property for sale,Canterbury,"£225,000        "
6 bedroom detached house for sale,"Dover Road, Walmer, Deal, CT14","£1,200,000        "
5 bedroom house for sale,"Albion Road, Ramsgate","£550,000        "
5 bedroom detached house for sale,"Parsonage Road, Herne Bay, Kent","£1,100,000        "
3 bedroom bungalow for sale,"Queens Avenue, Broadstairs","£550,000        "
6 bedroom terraced house for sale,"Garfield Road, Margate, Kent, CT9","£500,000        "
4 bedroom town house for sale,"Sunshine Corner Avenue, Aylesham","£320,000        "
4 bedroom detached house for sale,"Mongeham Church Close, Great Mongeham, Deal","£695,000        "
3 bedroom semi-detached house for sale,"Thornbridge Road, Deal","£275,000        "
2 bedroom maisonette for sale,"Molineux Road, Ramsgate","£170,000        "
3 bedroom detached house for sale,"Linksfield Road, Westgate-On-Sea","£425,000        "
