Type,Address,Price
3 bedroom semi-detached house for sale,"Whitstable Heights, Whitstable","£440,000        "
6 bedroom detached house for sale,"Oxney, St. Margarets-At-Cliffe, Dover, Kent","£4,500,000        "
Land for sale,"Eastry, Kent","£4,300,000        "
8 bedroom detached house for sale,"The Green, Wickhambreaux, Kent","£4,250,000        "
6 bedroom detached house for sale,"Oxney, St. Margarets-At-Cliffe, Dover, Kent","£3,600,000        "
5 bedroom detached house for sale,"Marine Parade, Tankerton, Whitstable","£3,250,000        "
2 bedroom detached house for sale,"New Dover Road, Canterbury","£3,000,000        "
5 bedroom detached house for sale,"Pean Hill, Whitstable, CT5","£2,950,000        "
7 bedroom detached house for sale,"Parish Road, Chartham, Canterbury, Kent","£2,750,000        "
5 bedroom detached house for sale,"Merton Lane, Canterbury","£2,300,000        "
6 bedroom detached house for sale,"Blean Hill, Blean, Canterbury","£2,250,000        "
5 bedroom detached house for sale,"Clapham Hill, Whitstable, Kent","£2,200,000        "
5 bedroom house for sale,"West Studdal, Dover","£2,100,000        "
4 bedroom detached house for sale,"Fleets Lane, Tyler Hill, Canterbury, Kent","£2,000,000        "
5 bedroom detached house for sale,"Marine Parade, Tankerton, Whitstable","£2,000,000        "
5 bedroom detached house for sale,"St. John's Place, Canterbury, Kent","£2,000,000        "
5 bedroom detached house for sale,"Marine Parade, Whitstable, Kent","£2,000,000        "
28 bedroom detached house for sale,"Western Esplanade, Broadstairs, CT10","£2,000,000        "
6 bedroom detached house for sale,"Royal Buildings, The Strand, Deal","£1,995,000        "
5 bedroom detached house for sale,"Oldstairs Road, Deal","£1,899,000        "
6 bedroom detached house for sale,"Sandwich Road, Eastry, Kent","£1,850,000        "
4 bedroom detached house for sale,"Bourne Park, Bridge, Canterbury, Kent, CT4","£1,850,000        "
4 bedroom detached house for sale,"Marine Parade, Tankerton, Whitstable","£1,795,000        "
4 bedroom detached house for sale,"Preston Parade, Whitstable","£1,750,000        "
5 bedroom detached house for sale,"Preston Meadows, Preston, Canterbury, Kent","£1,750,000        "
2 bedroom end of terrace house for sale,"Canterbury Road, Birchington","£250,000        "
4 bedroom detached house for sale,"Dane Road, Minnis Bay, Birchington","£1,750,000        "
4 bedroom detached house for sale,"Sea View Road, St Margarets Bay, Dover, Kent","£1,750,000        "
5 bedroom terraced house for sale,"Beach Street, Deal, Kent","£1,750,000        "
6 bedroom detached house for sale,"North Foreland Avenue, Broadstairs","£1,699,995        "
8 bedroom detached house for sale,Dominic Murphy presents this large period home in St Margaret's at Cliffe,"£1,695,000        "
3 bedroom detached house for sale,"Vicarage Lane, Blean, Canterbury, Kent","£1,600,000        "
4 bedroom detached house for sale,"Neptune Gap, Whitstable, Kent","£1,550,000        "
2 bedroom flat for sale,"High Street, Herne Bay","£1,500,000        "
4 bedroom detached house for sale,"Pickelden Lane, Mystole, Canterbury, Kent","£1,500,000        "
5 bedroom detached house for sale,"Hillside Road, Whitstable, CT5","£1,500,000        "
5 bedroom detached house for sale,"Sadlers Hill, Goodnestone, Canterbury, Kent","£1,500,000        "
4 bedroom detached house for sale,"The Drive, Chestfield, Whitstable","£1,500,000        "
7 bedroom house for sale,"Bridge, Canterbury","£1,500,000        "
5 bedroom detached house for sale,"Tankerton Road, Tankerton, Whitstable","£1,500,000        "
5 bedroom detached house for sale,"The Leas, Kingsdown, Deal, Kent, CT14","£1,500,000        "
6 bedroom semi-detached house for sale,"Martens Oast, Lower Ensden Farm, Old Wives Lees","£1,495,000        "
7 bedroom detached house for sale,"Watery Lane, Petham, Nr Canterbury, CT4","£1,450,000        "
4 bedroom detached house for sale,"Royal Avenue, Whitstable","£1,450,000        "
4 bedroom detached house for sale,"St. Margarets Road, St. Margarets Bay, Dover, Kent","£1,450,000        "
4 bedroom detached house for sale,"Dumpton Park Drive, Broadstairs, CT10","£1,450,000        "
6 bedroom house for sale,"Nelson Crescent, Ramsgate, Kent","£1,450,000        "
5 bedroom detached house for sale,"New Dover Road, Canterbury, Kent, CT1","£1,400,000        "
7 bedroom terraced house for sale,"Nelson Crescent, Ramsgate, Kent","£1,399,000        "
4 bedroom detached house for sale,Ramsgate,"£1,395,000        "
3 bedroom terraced house for sale,"Buckland Vale, Coombe Valley Road, Dover, Kent","£300,000        "
5 bedroom detached house for sale,"Nargate Street, Littlebourne, Kent","£1,375,000        "
4 bedroom detached house for sale,Broadstairs,"£1,325,000        "
5 bedroom detached house for sale,"Harkness Drive, Canterbury","£1,300,000        "
4 bedroom detached house for sale,"Whitstable Road, Herne Bay","£1,300,000        "
5 bedroom detached house for sale,"South Foreland Cottage, Foreland Road, St. Margarets Bay","£1,295,000        "
5 bedroom detached house for sale,"Lanthorne Road, Broadstairs","£1,295,000        "
5 bedroom detached bungalow for sale,Ramsgate,"£1,250,000        "
4 bedroom detached house for sale,"Allan Road, Whitstable, CT5","£1,250,000        "
6 bedroom detached house for sale,"Kiln Drive, Woodnesborough, Sandwich","£1,250,000        "
4 bedroom detached house for sale,"Conyngham Lane, Bridge","£1,250,000        "
5 bedroom detached bungalow for sale,"Pean Hill, Whitstable","£1,250,000        "
5 bedroom detached house for sale,"Fordwich Road, Fordwich, Canterbury, Kent","£1,250,000        "
5 bedroom detached house for sale,"Copperfields, Wingham","£1,250,000        "
4 bedroom detached house for sale,"St. Annes Road, Whitstable","£1,250,000        "
4 bedroom detached house for sale,"Queens Road, Tankerton, Whitstable","£1,250,000        "
6 bedroom detached house for sale,"Oxford Street, Whitstable","£1,250,000        "
5 bedroom detached house for sale,"Herne Bay Road, Sturry, Canterbury","£1,250,000        "
5 bedroom barn conversion for sale,"Herne Bay Road, Broad Oak, Canterbury, Kent","£1,250,000        "
2 bedroom detached house for sale,St Margarets Bay,"£1,250,000        "
4 bedroom detached house for sale,"North Stream, Marshside, Canterbury, Kent","£1,250,000        "
5 bedroom detached house for sale,"The Marina, Deal, Kent","£1,250,000        "
3 bedroom flat for sale,"Ocean Drive, Broadstairs, Kent","£1,200,000        "
6 bedroom detached house for sale,"Dover Road, Walmer, Deal, CT14","£1,200,000        "
5 bedroom apartment for sale,"Sun Street, Canterbury, CT1","£1,200,000        "
1 bedroom flat for sale,"Belmont Road, Whitstable","£225,000        "
7 bedroom detached house for sale,"Winterstoke Crescent, Ramsgate","£1,200,000        "
6 bedroom detached house for sale,"Royal Esplanade, Margate","£1,195,000        "
5 bedroom detached house for sale,"Worcester Grove, Broadstairs, Kent","£1,185,000        "
4 bedroom detached house for sale,"New Moon Barn, Stourmouth Road, Preston","£1,175,000        "
9 bedroom detached house for sale,"Dilnot lane, Acol","£1,150,000        "
5 bedroom detached house for sale,"Sandwich,Kent,CT13 0FR","£1,150,000        "
5 bedroom detached house for sale,"Chestfield Road, Chestfield, Whitstable, Kent","£1,150,000        "
4 bedroom detached house for sale,"The Avenue, Kingsdown, Deal","£1,150,000        "
4 bedroom detached house for sale,Nonington,"£1,150,000        "
4 bedroom detached house for sale,"Woodlands Road, Adisham, Canterbury","£1,150,000        "
5 bedroom country house for sale,"Fitzroy Avenue, Broadstairs, CT10","£1,150,000        "
6 bedroom end of terrace house for sale,"Churchfield Place, Margate, Kent, CT9","£1,150,000        "
4 bedroom detached house for sale,"Joy Lane, Whitstable","£1,150,000        "
10 bedroom block of apartments for sale,Margate,"£1,125,000        "
10 bedroom house for sale,"Harold Road, Cliftonville, Margate","£1,125,000        "
5 bedroom end of terrace house for sale,"Beach Street, Deal, Kent","£1,125,000        "
3 bedroom semi-detached house for sale,"Goodnestone Lane, Goodnestone, Faversham, Kent","£1,100,000        "
8 bedroom terraced house for sale,"Longport Cafe, Canterbury","£1,100,000        "
4 bedroom semi-detached house for sale,"High Street, Sandwich","£1,100,000        "
6 bedroom detached house for sale,"Chisnall Road, River, Kent","£1,100,000        "
5 bedroom detached house for sale,"Stourmead, Ashford Road, Chartham","£1,100,000        "
5 bedroom detached house for sale,"Stanley Road,Whitstable,Kent,CT5 4NQ","£1,100,000        "
4 bedroom detached house for sale,"Northwood Road, Tankerton, Whitstable","£1,100,000        "
5 bedroom detached house for sale,"Stanley Road, Whitstable, CT5","£1,100,000        "
1 bedroom flat for sale,"Trinity Square, Margate","£165,000        "
5 bedroom detached house for sale,"Parsonage Road, Herne Bay, Kent","£1,100,000        "
4 bedroom detached house for sale,"Pebble Lane, Seasalter, Whitstable","£1,100,000        "
4 bedroom detached house for sale,"Western Esplanade, Herne Bay","£1,100,000        "
4 bedroom detached house for sale,"Genesta Avenue, Whitstable","£1,100,000        "
6 bedroom detached house for sale,"Acorn Cottage, Courtenay Road, Denstroude","£1,100,000        "
Plot for sale,"Tower Parade, Whitstable","£1,050,000        "
4 bedroom end of terrace house for sale,"The Beach House, Beach Street, Deal","£1,050,000        "
3 bedroom cottage for sale,"Molehill Road, Chestfield, CT5","£1,050,000        "
Plot for sale,"Adrian Street, Dover, Kent, CT17","£1,000,000        "
4 bedroom detached house for sale,"Eastern Esplanade, Broadstairs","£1,000,000        "
4 bedroom detached house for sale,"The Cricketers, Broadstairs CT10 2XY","£1,000,000        "
5 bedroom detached house for sale,"The Length, St. Nicholas At Wade, Birchington, Kent","£1,000,000        "
5 bedroom detached house for sale,"The Length, Birchington","£1,000,000        "
4 bedroom detached house for sale,"The Cricketers, Broadstairs","£1,000,000        "
3 bedroom penthouse for sale,"Fort Hill, Margate, Kent, CT9","£1,000,000        "
3 bedroom maisonette for sale,"Seapoint Road, Broadstairs, Kent","£1,000,000        "
5 bedroom detached house for sale,"Whitstable Road, Blean, Canterbury, Kent, CT2","£1,000,000        "
4 bedroom detached house for sale,"Epple Bay Avenue, Birchington, Kent","£1,000,000        "
5 bedroom detached house for sale,"Laudin House, High Street, Bridge","£1,000,000        "
5 bedroom detached house for sale,"Summer Lane, Tyler Hill, Canterbury, Kent","£1,000,000        "
5 bedroom house for sale,"Buenos Ayres, Margate","£999,995        "
5 bedroom detached house for sale,"Kingsgate Avenue, Broadstairs","£999,995        "
5 bedroom detached house for sale,"Shrub Hill Road, Chestfield, Whitstable, CT5","£995,000        "
4 bedroom detached house for sale,"Ridgeway Road, Herne, Herne Bay","£995,000        "
4 bedroom detached house for sale,"Whitstable Heights, Whitstable","£520,000        "
5 bedroom terraced house for sale,"St Alphege Lane, Canterbury, Kent","£995,000        "
2 bedroom bungalow for sale,"Preston Parade, Seasalter, CT5","£995,000        "
4 bedroom detached house for sale,"Cliff Road, Birchington","£995,000        "
4 bedroom detached house for sale,"The Street, Eythorne, Dover","£995,000        "
4 bedroom detached house for sale,"North Foreland Road, Broadstairs, Kent","£985,000        "
4 bedroom detached house for sale,"Cherry Orchard, Chestfield, Whitstable","£975,000        "
4 bedroom detached house for sale,"Herne Bay Road, Broad Oak, Canterbury, Kent","£975,000        "
8 bedroom semi-detached house for sale,"Canterbury Road, Margate","£975,000        "
3 bedroom house for sale,"Harbour Street, Broadstairs","£975,000        "
4 bedroom detached house for sale,"Ridgeway Road, Herne Bay, Kent","£975,000        "
4 bedroom detached house for sale,"Granville Road, Walmer, Kent","£975,000        "
4 bedroom detached house for sale,"Herne Bay Road, Sturry, Canterbury","£975,000        "
4 bedroom detached house for sale,"Park Avenue, Broadstairs","£975,000        "
5 bedroom detached house for sale,"Ashford Road, Chartham, Canterbury","£950,000        "
5 bedroom detached house for sale,"The Street, Martin, CT15","£950,000        "
5 bedroom detached house for sale,"Holland Close, Broadstairs","£950,000        "
5 bedroom detached house for sale,"Rayham Road, Whitstable, Kent","£950,000        "
10 bedroom detached house for sale,"Longtye Drive, Chestfield, Whitstable","£950,000        "
4 bedroom detached house for sale,"Convent Road, Broadstairs","£950,000        "
4 bedroom detached house for sale,"Puckle Lane, Canterbury","£950,000        "
4 bedroom semi-detached house for sale,"Coast Guard Cottages, Swalecliffe","£950,000        "
4 bedroom house for sale,"Jubilee Road, Worth, Deal","£950,000        "
8 bedroom detached house for sale,"Longtye Drive, Chestfield, Whitstable, Kent","£950,000        "
5 bedroom detached house for sale,"Holland Close, Broadstairs","£950,000        "
2 bedroom flat for sale,"North Foreland Road, Broadstairs","£450,000        "
5 bedroom detached house for sale,"Radfall Ride, Whitstable","£950,000        "
3 bedroom end of terrace house for sale,"The Marina, Deal, Kent","£945,000        "
5 bedroom detached house for sale,"Invicta Road, Whitstable","£945,000        "
4 bedroom detached house for sale,"Molehill Road, Chestfield, Whitstable","£945,000        "
4 bedroom detached house for sale,"St Lawrence Forstal, Canterbury","£925,000        "
3 bedroom terraced house for sale,"The Marina, Deal, Kent","£925,000        "
3 bedroom detached house for sale,"Mill Lane, Canterbury, Kent, CT1","£925,000        "
5 bedroom detached house for sale,"Orchard House, Dargate, ME13","£925,000        "
4 bedroom detached house for sale,"Plum Pudding Lane, Dargate, Faversham","£925,000        "
4 bedroom detached house for sale,"Cherry Orchard, Chestfield, Whitstable","£925,000        "
5 bedroom detached house for sale,"Dargate Road, Yorkletts, Whitstable, Kent","£925,000        "
5 bedroom detached house for sale,"Chestfield Road, Chestfield, Whitstable, Kent","£925,000        "
7 bedroom terraced house for sale,"Nelson Crescent, Ramsgate, Kent","£924,000        "
5 bedroom detached house for sale,"Graystone Road, Tankerton, Whitstable","£915,000        "
7 bedroom terraced house for sale,"Westgate Bay Avenue, Westgate-On-Sea, Kent","£900,000        "
5 bedroom detached house for sale,"Foreland Heights, Broadstairs, Kent","£900,000        "
6 bedroom terraced house for sale,"Paragon, Ramsgate, Kent, CT11","£900,000        "
5 bedroom detached house for sale,"Fair Street, Broadstairs","£900,000        "
5 bedroom detached house for sale,"Dumpton Park Drive, Broadstairs, Kent","£900,000        "
4 bedroom detached house for sale,"Manor Road, Whitstable, Kent","£900,000        "
4 bedroom detached house for sale,"Harbledown Park, Harbledown, Canterbury","£900,000        "
4 bedroom detached house for sale,"Lanthorne Road, Broadstairs, Kent","£900,000        "
4 bedroom detached house for sale,"Bewsbury Cross Lane,Whitfield,Kent,CT16 3EZ","£900,000        "
3 bedroom detached house for sale,"Bushy Hill Road, Westbere, Canterbury","£900,000        "
2 bedroom terraced house for sale,"St. Patricks Road, Ramsgate","£269,995        "
4 bedroom town house for sale,Large Period Property Near the Beach in New Street Deal CT14 6JY,"£900,000        "
5 bedroom detached house for sale,"Winterstoke Way, Ramsgate, Kent, CT11","£899,995        "
7 bedroom detached house for sale,"Ridgeway Road, Herne","£899,995        "
3 bedroom semi-detached house for sale,"Fountain Street, Whitstable, Kent","£899,950        "
4 bedroom detached house for sale,"Upton Grange, Broadstairs","£899,950        "
5 bedroom semi-detached house for sale,"Parsonage Farm Oast, Nine Ash Lane, Boughton-under-Blean","£895,000        "
8 bedroom detached house for sale,"Cossington Road, Canterbury, CT1","£895,000        "
6 bedroom terraced house for sale,"Central Parade, Herne Bay","£895,000        "
4 bedroom detached house for sale,Walmer,"£895,000        "
4 bedroom town house for sale,"Summer Hill, Harbledown","£895,000        "
5 bedroom detached house for sale,"Church Hill, Shepherdswell","£895,000        "
4 bedroom detached house for sale,"Willow Road, Whitstable","£895,000        "
4 bedroom detached house for sale,"Eddington Lane, Herne Bay","£895,000        "
4 bedroom detached bungalow for sale,"Fitzroy Road, Tankerton, Whitstable","£895,000        "
9 bedroom house for sale,"Ramsgate Road, Margate","£888,000        "
9 bedroom block of apartments for sale,Margate,"£888,000        "
4 bedroom detached house for sale,"Benacre Road, Whitstable","£875,000        "
4 bedroom house for sale,"Holland Close, Broadstairs","£875,000        "
4 bedroom detached bungalow for sale,"Botany Road, Broadstairs","£875,000        "
8 bedroom detached house for sale,"Two Separate Freehold Properties In Ash, Canterbury","£875,000        "
4 bedroom detached house for sale,"Wickham Road, Wickhambreaux, Canterbury, Kent, CT3","£875,000        "
4 bedroom detached bungalow for sale,"Castle Road, Tankerton, Whitstable","£875,000        "
2 bedroom house for sale,"Sea Street, Whitstable","£865,000        "
5 bedroom detached house for sale,"Epple Bay Avenue, Birchington","£860,000        "
2 bedroom detached bungalow for sale,"Margate Road, Ramsgate, Kent","£425,000        "
4 bedroom detached house for sale,"Busheyfield Road, Herne Bay","£855,000        "
6 bedroom house for sale,"Royal Road, Ramsgate","£855,000        "
4 bedroom detached house for sale,"Kingsgate Avenue, Broadstairs, Kent","£855,000        "
5 bedroom detached house for sale,Broadstairs,"£850,000        "
5 bedroom detached house for sale,"Fitzroy Avenue, Broadstairs","£850,000        "
5 bedroom detached house for sale,Herne Bay,"£850,000        "
5 bedroom detached house for sale,"Dargate Road, Yorkletts, Whitstable","£850,000        "
4 bedroom detached house for sale,"The Length, St Nicholas at Wade, CT7","£850,000        "
4 bedroom detached house for sale,"Benacre Road, Whitstable","£850,000        "
5 bedroom detached house for sale,"London Road, Deal, Kent","£850,000        "
5 bedroom terraced house for sale,"Augusta Road, Ramsgate","£850,000        "
5 bedroom detached house for sale,"Downs View Way, Chartham, Canterbury, Kent","£850,000        "
5 bedroom detached house for sale,"Seaville Drive, Herne Bay","£850,000        "
4 bedroom detached house for sale,"Foreland Heights, Broadstairs, Kent","£850,000        "
5 bedroom detached house for sale,"Kings Avenue, Birchington","£850,000        "
6 bedroom terraced house for sale,"Prospect Terrace, Ramsgate, Kent, CT11","£850,000        "
4 bedroom detached house for sale,"Manor Road, Herne Bay, Kent","£850,000        "
5 bedroom detached house for sale,"Booth Place, Margate","£850,000        "
3 bedroom house for sale,"Westgate Grove, Canterbury, Kent","£850,000        "
4 bedroom town house for sale,"Blenheim Road,Deal,CT14 7AJ","£850,000        "
4 bedroom detached house for sale,"Marley Fields, Hoath, Canterbury, Kent","£850,000        "
4 bedroom detached house for sale,"Highlands Glade, Manston, Ramsgate, Kent","£850,000        "
4 bedroom detached house for sale,"Upper Street, Tilmanstone, Deal, Kent","£850,000        "
4 bedroom detached house for sale,"Luton Avenue, Broadstairs, Kent","£850,000        "
5 bedroom terraced house for sale,"Percy Avenue, Broadstairs","£409,999        "
4 bedroom detached house for sale,Minnis Bay,"£850,000        "
4 bedroom house for sale,"Broomfield Road, Herne Bay","£850,000        "
4 bedroom bungalow for sale,"Vicarage Lane, Blean, Canterbury, Kent","£850,000        "
4 bedroom detached house for sale,"Broomfield Road, Herne Bay","£850,000        "
4 bedroom detached house for sale,"Cherville Lane, Bramling, Canterbury, Kent, CT3","£850,000        "
5 bedroom detached house for sale,"Wilbrough Road, Birchington","£845,000        "
4 bedroom detached house for sale,"Buckland Lane, Staple, Nr Dover, CT3","£845,000        "
4 bedroom detached house for sale,"Saddleton Road, Whitstable","£830,000        "
4 bedroom detached house for sale,"Manston Road, Manston, Ramsgate, CT12","£829,000        "
4 bedroom detached house for sale,"Manston Road, Manston, Ramsgate, CT12","£829,000        "
5 bedroom semi-detached house for sale,"Seapoint Road, Broadstairs, CT10","£825,000        "
4 bedroom detached house for sale,"The Old Fairground, Wingham, Canterbury","£825,000        "
4 bedroom detached house for sale,"The Street, Adisham","£825,000        "
4 bedroom detached house for sale,"The Old Fairground, High Street, Wingham, Kent","£825,000        "
3 bedroom mews house for sale,"Stour Street, Canterbury, Kent","£825,000        "
4 bedroom end of terrace house for sale,"London Road, Canterbury, Kent","£825,000        "
5 bedroom ground maisonette for sale,"St. Augustine's Road, Ramsgate, Kent","£825,000        "
3 bedroom penthouse for sale,"Cliff Promenade, Broadstairs, CT10 3QY","£825,000        "
3 bedroom terraced house for sale,"Stour Street, Canterbury, Kent","£825,000        "
3 bedroom detached house for sale,"Hoath Road, Hoath, Canterbury, Kent","£825,000        "
4 bedroom semi-detached house for sale,"Graystone Road, Tankerton, Whitstable","£825,000        "
4 bedroom detached house for sale,"Canterbury Road, Herne Bay","£825,000        "
5 bedroom detached house for sale,"Hickman's Green Cottages, Hickman's Green, Boughton-under-Blean, Faversham, Kent, ME13","£825,000        "
15 bedroom flat for sale,"High Street, Margate","£825,000        "
5 bedroom semi-detached house for sale,"Mayfield Villas Station Road, Ken, CT15","£525,000        "
5 bedroom detached house for sale,"Knell Lane, Ash, Canterbury, Kent","£825,000        "
3 bedroom retirement property for sale,"Canterbury Road, Canterbury","£821,500        "
4 bedroom detached house for sale,"Manston Road, Manston, Ramsgate, CT12","£815,000        "
6 bedroom house for sale,"Westcliff Gardens, Margate","£800,000        "
4 bedroom semi-detached house for sale,"Seapoint Road, Broadstairs, Kent","£800,000        "
6 bedroom house for sale,"Addiscombe Road, Margate","£800,000        "
4 bedroom detached house for sale,"Little Paddocks, Chestfield, Whitstable","£800,000        "
4 bedroom detached house for sale,"North Foreland Road, Broadstairs, CT10","£800,000        "
5 bedroom detached house for sale,"The Droveway, St. Margarets Bay, Dover","£800,000        "
3 bedroom bungalow for sale,"Shatterling, Canterbury","£800,000        "
4 bedroom semi-detached house for sale,"South Street, Boughton-Under-Blean, Faversham","£800,000        "
4 bedroom semi-detached house for sale,Period Property Near the Beach in Griffin Street Deal CT14 6LH,"£800,000        "
4 bedroom detached house for sale,"Cromwell Road, Canterbury","£800,000        "
5 bedroom detached bungalow for sale,"Upper Road, Dover, CT16","£800,000        "
4 bedroom detached house for sale,"Union Road, Bridge, Canterbury","£800,000        "
5 bedroom detached house for sale,"The Droveway, St. Margarets Bay, Dover, CT15","£800,000        "
5 bedroom detached house for sale,"The Droveway, St. Margarets Bay, Dover, CT15","£800,000        "
4 bedroom detached house for sale,"Convent Road, Broadstairs, CT10","£800,000        "
4 bedroom detached house for sale,"Hazlemere Road, Whitstable","£800,000        "
6 bedroom detached house for sale,"Madeira Road, Margate","£800,000        "
5 bedroom terraced house for sale,"Canterbury Road, Margate, Kent, CT9","£800,000        "
4 bedroom detached house for sale,"Graystone Road, Tankerton, Whitstable","£800,000        "
5 bedroom bungalow for sale,"Sea View Road, Broadstairs, Kent","£800,000        "
4 bedroom detached house for sale,"Canute Road, Birchington","£800,000        "
2 bedroom flat for sale,"The Street, Woodnesborough, Sandwich","£65,000        "
5 bedroom house for sale,"Blenheim Road, Deal, CT14","£800,000        "
4 bedroom house for sale,"Moray Avenue, Birchington","£799,995        "
5 bedroom detached house for sale,"Sandwich Road, Cliffsend, Ramsgate","£799,995        "
4 bedroom detached house for sale,"Grove Road, Wickhambreaux, Canterbury","£799,000        "
3 bedroom detached house for sale,"Grams Road, Deal, CT14","£798,995        "
5 bedroom detached house for sale,"Manor Road, Bishopstone, Herne Bay","£795,000        "
5 bedroom detached house for sale,Cliffsend,"£795,000        "
6 bedroom house for sale,"Granville Road, Broadstairs","£795,000        "
5 bedroom bungalow for sale,"Chestfield Road, Chestfield, CT5","£795,000        "
4 bedroom detached house for sale,"Hampton Pier Avenue, Herne Bay, Kent, CT6","£795,000        "
2 bedroom apartment for sale,"Convent Road, Kingsgate","£795,000        "
6 bedroom house for sale,"Spencer Square, Ramsgate","£795,000        "
4 bedroom detached house for sale,"Church Lane, Canterbury","£795,000        "
3 bedroom detached bungalow for sale,"Western Esplanade, Herne Bay","£795,000        "
4 bedroom detached house for sale,"Durlock Avenue, Ramsgate, CT11","£795,000        "
4 bedroom cottage for sale,"Huntsman Cottage, Chestfield, Whitstable","£795,000        "
6 bedroom terraced house for sale,"High Street, Ramsgate","£795,000        "
4 bedroom terraced house for sale,"Duke Street, Deal, Kent","£795,000        "
4 bedroom detached house for sale,"Thistledown, Hoopers Lane, Herne Bay, Kent","£795,000        "
5 bedroom detached house for sale,"Puckle Lane, Canterbury","£795,000        "
3 bedroom semi-detached house for sale,"The Drove, Chestfield, CT5","£795,000        "
4 bedroom detached house for sale,"Clover Rise, Whitstable, CT5","£795,000        "
4 bedroom detached house for sale,"Wingate Hill, Harbledown, Canterbury","£795,000        "
7 bedroom detached house for sale,"Goodwin Road, Ramsgate, CT11","£780,000        "
4 bedroom detached house for sale,"Leslie Avenue, Margate","£400,000        "
4 bedroom detached house for sale,"Stone Road, Broadstairs, Kent, CT10","£775,000        "
5 bedroom detached house for sale,"Primrose House, Dunkirk Road North, Dunkirk","£775,000        "
6 bedroom detached house for sale,"Thurlow Avenue, Herne Bay, CT6","£775,000        "
4 bedroom detached bungalow for sale,"Plantation Road, Chestfield, Whitstable","£775,000        "
4 bedroom detached house for sale,"Eythorne Road,Shepherdswell,Dover,CT15 7PG","£765,000        "
2 bedroom apartment for sale,"Canterbury Road, Wingham, Canterbury, CT3","£762,500        "
6 bedroom detached house for sale,"Beltinge Road, Herne Bay, CT6","£760,000        "
5 bedroom detached house for sale,"Chestfield Road, Chestfield, Whitstable, Kent","£759,500        "
3 bedroom detached bungalow for sale,"Ellison Close, Chestfield, Whitstable, Kent","£750,000        "
5 bedroom semi-detached house for sale,"Grange Road, Ramsgate","£750,000        "
5 bedroom house for sale,"Golf Road, Deal","£750,000        "
4 bedroom detached house for sale,"Ocean View, Broadstairs","£750,000        "
6 bedroom detached house for sale,"Flax Court Lane, Eythorne, Dover, CT15","£750,000        "
2 bedroom house for sale,"Island Wall, Whitstable","£750,000        "
5 bedroom detached house for sale,"Luton Avenue, Broadstairs, Kent","£750,000        "
4 bedroom detached house for sale,"Winchester Gardens, Canterbury, Kent","£750,000        "
3 bedroom detached bungalow for sale,"The Strand, Walmer, Deal, Kent","£750,000        "
4 bedroom detached house for sale,"Winchester Gardens, Canterbury","£750,000        "
3 bedroom semi-detached house for sale,"Grange Road, Deal","£750,000        "
4 bedroom detached house for sale,"Jubilee Road, Worth, Kent","£750,000        "
3 bedroom penthouse for sale,"Fitzroy Road, Tankerton, CT5","£750,000        "
Land for sale,"Dover Road, Walmer, Deal","£750,000        "
3 bedroom detached house for sale,"Dover Road, Walmer, Deal, Kent","£750,000        "
4 bedroom detached house for sale,"Western Esplanade, Herne Bay","£750,000        "
2 bedroom flat for sale,"King Street, Margate","£225,000        "
5 bedroom detached house for sale,"High Street,Minster,Ramsgate,Kent","£750,000        "
8 bedroom terraced house for sale,"Godwin Road, Cliftonville, Margate","£750,000        "
4 bedroom house for sale,"Pegwell Road, Ramsgate","£750,000        "
4 bedroom detached house for sale,Cliftonville,"£750,000        "
5 bedroom detached house for sale,"Malvern Meadow, Temple Ewell, Dover, Kent, CT16","£750,000        "
15 bedroom detached house for sale,"Folkestone Road, Dover","£750,000        "
5 bedroom detached bungalow for sale,"Church Hill, Preston, Canterbury","£750,000        "
2 bedroom house for sale,"Golden Street, Deal, CT14","£750,000        "
4 bedroom detached house for sale,"Bakers Field, Cliffsend, CT12","£750,000        "
4 bedroom detached house for sale,"2 Dolphin Close, Broadstairs, CT10","£750,000        "
3 bedroom house for sale,"Hatch Lane, Chartham Hatch, Canterbury","£750,000        "
3 bedroom detached house for sale,"Stone Road, Broadstairs","£750,000        "
4 bedroom end of terrace house for sale,"Dane John, Canterbury, Kent","£750,000        "
5 bedroom detached house for sale,"Harkness Drive, Canterbury, Kent, CT2","£750,000        "
4 bedroom detached house for sale,"The Ridings, Cliftonville, Margate","£750,000        "
5 bedroom detached house for sale,"The Street, Guston, Dover, CT15","£750,000        "
4 bedroom detached house for sale,"Church Hill, Elmstone, Kent, CT3","£750,000        "
4 bedroom detached house for sale,"Upper Street, Kingsdown, Deal, Kent","£750,000        "
5 bedroom detached house for sale,"Upper Street,Kingsdown,Deal,CT14 8BJ","£750,000        "
5 bedroom detached house for sale,"Island Road, Upstreet, Canterbury","£750,000        "
4 bedroom detached house for sale,"Foreland Heights, Ramsgate","£739,995        "
2 bedroom penthouse for sale,"Ramsgate,","£735,000        "
5 bedroom semi-detached house for sale,"Fitzroy Avenue, Broadstairs, CT10","£735,000        "
4 bedroom detached house for sale,"Gothic Close, Walmer, Deal","£730,000        "
4 bedroom terraced house for sale,"Alfred Road, Minnis Bay, Birchington, CT7","£575,000        "
3 bedroom detached house for sale,"St. Marys Grove, Whitstable","£730,000        "
6 bedroom detached house for sale,"Island Road, Upstreet, Canterbury, Kent","£730,000        "
4 bedroom detached house for sale,"Church Hill, Canterbury","£730,000        "
3 bedroom semi-detached house for sale,"Goodnestone Lane, Goodnestone, Faversham, Kent","£726,500        "
3 bedroom semi-detached house for sale,"Canterbury Road, Wingham, Canterbury, CT3","£725,500        "
5 bedroom detached house for sale,"Lyndhurst Road, Broadstairs","£725,000        "
House for sale,"Canterbury Road, Whitstable","£725,000        "
5 bedroom detached house for sale,"Beltinge Road, Herne Bay, Kent","£725,000        "
4 bedroom detached bungalow for sale,"Maydowns Road, Chestfield, Whitstable, Kent","£725,000        "
4 bedroom detached house for sale,"Lynwood Green, Sandwich Road, Whitfield","£725,000        "
3 bedroom detached house for sale,"Millstrood Road, Whitstable","£725,000        "
5 bedroom semi-detached house for sale,"Stone Road, Broadstairs, CT10","£725,000        "
4 bedroom detached bungalow for sale,"Ridgeway Road, Herne Bay, Kent","£725,000        "
4 bedroom detached house for sale,"Golden Hill, Whitstable","£725,000        "
3 bedroom detached house for sale,"Graystone Road, Tankerton, Whitstable","£725,000        "
4 bedroom detached house for sale,"Gladstone Road, Broadstairs, Kent","£725,000        "
6 bedroom house for sale,"The Foreland, Canterbury","£725,000        "
4 bedroom house for sale,"Stone Road, Broadstairs","£725,000        "
3 bedroom detached house for sale,"The Retreat, Deal, CT14","£725,000        "
5 bedroom detached house for sale,"Sandwich Road, Eastry","£715,000        "
4 bedroom detached house for sale,"Gresham Avenue, Margate, Kent, CT9","£715,000        "
5 bedroom detached house for sale,"Beech Grove, Ramsgate, Cliffsend","£710,000        "
4 bedroom detached house for sale,"St. Georges Road, Sandwich, CT13","£700,000        "
6 bedroom detached house for sale,"Pine Tree Close, Birchington, Kent, CT7","£700,000        "
5 bedroom detached house for sale,"Puckle Lane, Canterbury","£795,000        "
2 bedroom flat for sale,"Sion Hill, Ramsgate, Kent","£700,000        "
4 bedroom detached house for sale,"Dover Road,Walmer,Deal,CT14 7JG","£700,000        "
5 bedroom terraced house for sale,"Percy Avenue, Kingsgate, Broadstairs, Kent","£700,000        "
5 bedroom detached house for sale,"Eaton Road, Margate","£700,000        "
4 bedroom detached house for sale,"Cliff Road, Birchington, Kent","£700,000        "
4 bedroom end of terrace house for sale,"St. John's Place, Canterbury, Kent","£700,000        "
4 bedroom detached bungalow for sale,"Mill Lane, Herne Bay","£700,000        "
3 bedroom detached bungalow for sale,"Chestnut Drive, Worth, Nr Deal, Kent","£700,000        "
4 bedroom detached house for sale,"Island Road, Sturry, Canterbury","£700,000        "
4 bedroom detached house for sale,"George V Avenue, Margate, Kent","£700,000        "
4 bedroom detached house for sale,"New Street, Sandwich","£700,000        "
3 bedroom detached bungalow for sale,"Queens Avenue, Herne Bay","£700,000        "
4 bedroom detached house for sale,"Nursery Close, Whitstable","£700,000        "
5 bedroom town house for sale,"Kent Terrace, Ramsgate","£700,000        "
4 bedroom semi-detached house for sale,"Vicarage Street, St. Peters, Broadstairs, Kent","£700,000        "
5 bedroom maisonette for sale,"Nelson Crescent, Ramsgate","£700,000        "
3 bedroom apartment for sale,"1 Granville Marina, Ramsgate","£700,000        "
5 bedroom detached house for sale,"Hartsdown Road, Westbrook, Margate, Kent","£700,000        "
6 bedroom detached bungalow for sale,"Lawn Road, Broadstairs, Kent","£700,000        "
4 bedroom detached house for sale,"Percy Avenue, Broadstairs, CT10","£700,000        "
6 bedroom terraced house for sale,"Godwin Road, Cliftonville, Margate, Kent","£700,000        "
2 bedroom detached bungalow for sale,"Queens Avenue, Birchington, Kent","£700,000        "
4 bedroom detached bungalow for sale,"Edmanson Avenue, Margate, Kent","£700,000        "
4 bedroom detached house for sale,"Nursery Close, Whitstable, Kent","£700,000        "
3 bedroom end of terrace house for sale,"Canterbury Road, Birchington","£340,000        "
4 bedroom detached house for sale,"Cliff Road, Birchington-on-Sea","£700,000        "
6 bedroom bungalow for sale,"Lawn Road, Broadstairs, Kent, CT10","£700,000        "
4 bedroom bungalow for sale,"Davids Close, Broadstairs, Kent","£700,000        "
4 bedroom detached house for sale,"Lower Road, River, Dover, Kent","£700,000        "
4 bedroom detached house for sale,"Sandown Road, Sandwich, Kent","£700,000        "
5 bedroom terraced house for sale,"Trinity Square, Margate, Kent","£700,000        "
3 bedroom detached bungalow for sale,"Smugglers Way, Birchington, Kent, CT7","£699,999        "
4 bedroom detached house for sale,Kings Avenue Sandwich Bay,"£699,995        "
4 bedroom detached house for sale,"Gresham Avenue, Margate","£699,995        "
4 bedroom house for sale,"Cecil Park, Herne Bay","£699,995        "
3 bedroom apartment for sale,"William Street, Herne Bay","£699,995        "
4 bedroom detached house for sale,"Rosetower Court, Broadstairs","£699,995        "
6 bedroom end of terrace house for sale,"Berry Narbor, 46 Grove Road, Ramsgate, Kent, CT11","£699,995        "
4 bedroom detached house for sale,"St Swithins Road, Tankerton, Whitstable","£699,995        "
4 bedroom semi-detached house for sale,"Clifton Road, Whitstable","£699,950        "
4 bedroom detached house for sale,"Stone Road, Broadstairs","£699,950        "
4 bedroom terraced house for sale,"The Street, Boughton-under-Blean","£699,950        "
4 bedroom detached house for sale,"Chilton Avenue, Temple Ewell, CT16","£699,950        "
4 bedroom detached house for sale,Walmer,"£699,950        "
4 bedroom terraced house for sale,"Grange Road, Ramsgate","£695,000        "
4 bedroom detached house for sale,"Staple Street, Hernhill, Faversham, Kent","£695,000        "
4 bedroom terraced house for sale,"Nelson Road, Whitstable, CT5","£695,000        "
4 bedroom detached house for sale,"Grove Road, Preston, Canterbury","£695,000        "
5 bedroom end of terrace house for sale,"Church Street, Canterbury, Kent","£695,000        "
3 bedroom terraced house for sale,"Clarendon Place, Dover, CT17","£175,000        "
4 bedroom detached house for sale,"Common Lane, River, Dover","£695,000        "
5 bedroom detached house for sale,"Bishopstone Lane, Herne Bay, Kent","£695,000        "
3 bedroom house for sale,"Grasmere Road, Whitstable","£695,000        "
4 bedroom detached house for sale,"Queens Road, Ramsgate, Kent","£695,000        "
4 bedroom detached house for sale,"Mongeham Church Close, Great Mongeham, Deal, Kent, CT14","£695,000        "
4 bedroom detached house for sale,"The Royal Oak, Chartham Hatch, Canterbury","£695,000        "
5 bedroom detached house for sale,"Common Lane, River, Dover, Kent","£695,000        "
4 bedroom detached bungalow for sale,"Bekesbourne Lane, Bekesbourne, Canterbury, CT4","£695,000        "
4 bedroom detached house for sale,"Mongeham Church Close, Great Mongeham, Deal","£695,000        "
2 bedroom apartment for sale,"Queens Road, Tankerton, Whitstable","£695,000        "
4 bedroom character property for sale,Chartham Hatch,"£695,000        "
5 bedroom detached bungalow for sale,"Mill Lane, Herne Bay","£685,000        "
5 bedroom detached house for sale,"Seasalter Lane, Whitstable","£685,000        "
5 bedroom house for sale,"Ramsgate Road, Broadstairs","£685,000        "
5 bedroom detached house for sale,"Martindown Road, Whitstable","£685,000        "
5 bedroom detached house for sale,"Tothill Street, Minster, Ramsgate","£685,000        "
4 bedroom detached bungalow for sale,"Mickleburgh Hill, Herne Bay","£685,000        "
5 bedroom semi-detached house for sale,"Dumpton Farm House, Ramsgate Road, Broadstairs","£685,000        "
6 bedroom house for sale,"St Georges Road, Broadstairs","£680,000        "
5 bedroom detached house for sale,"Northdown Park Road, Cliftonville","£680,000        "
8 bedroom block of apartments for sale,"Godwin Road, Cliftonville","£675,000        "
4 bedroom semi-detached house for sale,"Chitty Lane, Chislet, Canterbury, Kent","£675,000        "
4 bedroom detached house for sale,"Manor View, Lower Road, Temple Ewell, Dover","£675,000        "
4 bedroom detached house for sale,"Mandeville Road, Canterbury","£675,000        "
3 bedroom detached house for sale,"Sleigh Road, Sturry, Canterbury","£450,000        "
9 bedroom property for sale,"Godwin Road, Cliftonville, Margate","£675,000        "
4 bedroom detached house for sale,"Graystone Road, Tankerton, Whitstable","£675,000        "
3 bedroom detached house for sale,"Lanthorne Road,","£675,000        "
2 bedroom apartment for sale,"Western Esplanade, Herne Bay","£675,000        "
3 bedroom detached bungalow for sale,"Clifford Road, Whitstable","£675,000        "
4 bedroom detached house for sale,"Westbrook Avenue, Margate","£675,000        "
4 bedroom detached house for sale,"Longacre, Chestfield, Whitstable","£675,000        "
6 bedroom detached house for sale,"Cherry Garden Road, Canterbury, CT2","£675,000        "
2 bedroom detached house for sale,"Foreland Avenue, Cliftonville, Margate","£675,000        "
4 bedroom detached house for sale,"Parish Close,","£675,000        "
5 bedroom bungalow for sale,"Maydowns Road, Chestfield, Whitstable","£675,000        "
5 bedroom terraced house for sale,"Adelaide Gardens, Ramsgate, Kent","£675,000        "
5 bedroom detached house for sale,"Bramley Gardens, Herne Bay, CT6","£675,000        "
5 bedroom terraced house for sale,Walmer,"£675,000        "
9 bedroom house for sale,"Godwin Road, Cliftonville, Margate","£675,000        "
9 bedroom house for sale,"Godwin Road, Cliftonville, Margate","£675,000        "
4 bedroom detached house for sale,"Grange Road, Deal, Kent","£675,000        "
3 bedroom detached bungalow for sale,"Singledge Lane, Whitfield, Dover","£675,000        "
5 bedroom terraced house for sale,"Westbrook Gardens, Margate","£675,000        "
6 bedroom detached house for sale,"Monkton Road, Minster, Ramsgate","£675,000        "
6 bedroom house for sale,"Queens Road, Broadstairs","£675,000        "
4 bedroom detached house for sale,"Maydowns Road, Chestfield, Whitstable, Kent","£675,000        "
4 bedroom detached house for sale,"Hazlemere Road, Seasalter, Whitstable","£675,000        "
4 bedroom detached house for sale,"Francis Close, Cliffsend, Ramsgate","£675,000        "
1 bedroom flat for sale,"Wrotham Road, Broadstairs","£225,000        "
6 bedroom detached house for sale,"Spenser Road, Herne Bay, CT6","£665,000        "
4 bedroom detached house for sale,"Grove Gardens, Westbrook, Margate","£665,000        "
5 bedroom detached house for sale,"The Length, St. Nicholas At Wade, Birchington, Kent","£660,500        "
4 bedroom detached house for sale,"Millstrood Road, Whitstable","£659,995        "
4 bedroom detached house for sale,"Lanthorne Road,","£655,000        "
2 bedroom retirement property for sale,"Orchard Yard, Wingham, Canterbury","£655,000        "
4 bedroom detached house for sale,"Dargate Road, Yorkletts, Whitstable","£650,000        "
5 bedroom town house for sale,"Dane John, Canterbury","£650,000        "
9 bedroom end of terrace house for sale,"Folkestone Road, Dover, CT17","£650,000        "
4 bedroom detached house for sale,"Lighthouse Road, St. Margarets Bay, Dover, CT15","£650,000        "
3 bedroom detached bungalow for sale,"Woodrow Chase, Herne Bay, CT6","£650,000        "
4 bedroom detached house for sale,Bridge,"£650,000        "
4 bedroom detached house for sale,"Jasmine Close, St Augustines, Chartham","£650,000        "
9 bedroom terraced house for sale,"Augusta Road, Ramsgate, Kent, CT11","£650,000        "
2 bedroom apartment for sale,"Pegwell Road, Ramsgate","£650,000        "
6 bedroom terraced house for sale,"Edgar Road, Cliftonville, Margate, Kent","£650,000        "
4 bedroom semi-detached house for sale,Canterbury,"£650,000        "
4 bedroom detached house for sale,"Astley Avenue, Dover","£650,000        "
4 bedroom bungalow for sale,"St. Vincent Road, St Margarets-At-Cliffe, Dover, Kent","£650,000        "
5 bedroom detached house for sale,"Crispe Park Close, Birchington","£650,000        "
4 bedroom detached house for sale,"Harkness Drive, Canterbury","£650,000        "
8 bedroom end of terrace house for sale,"Folkestone Road, Dover, Kent","£650,000        "
4 bedroom detached house for sale,"The Laurels, Littlebourne, Canterbury","£650,000        "
5 bedroom detached house for sale,"Augustine Road, Minster, Ramsgate","£650,000        "
1 bedroom flat for sale,"Bognor Drive, Herne Bay","£220,000        "
4 bedroom semi-detached house for sale,Broadstairs,"£650,000        "
4 bedroom detached bungalow for sale,"Nash Road, Ash, Canterbury","£650,000        "
7 bedroom detached house for sale,"Ramsgate Road, Broadstairs, Kent, CT10","£650,000        "
4 bedroom terraced house for sale,"Castle Street, Dover, CT16","£650,000        "
9 bedroom house for sale,"Augusta Road, Ramsgate","£650,000        "
5 bedroom house for sale,"Paragon, Ramsgate","£650,000        "
3 bedroom bungalow for sale,"Gainsborough Drive, Herne Bay","£650,000        "
4 bedroom semi-detached house for sale,Monkton Street,"£650,000        "
4 bedroom bungalow for sale,"Church Road, Coldred, Dover, CT15","£650,000        "
4 bedroom detached house for sale,"The Foreland, Canterbury, Kent, CT1","£650,000        "
5 bedroom terraced house for sale,"Spencer Square, Ramsgate","£650,000        "
4 bedroom semi-detached house for sale,"Rectory Road, Broadstairs, Kent","£650,000        "
3 bedroom detached house for sale,"Pavilion Meadow, River, Dover, CT17","£650,000        "
3 bedroom detached bungalow for sale,"Gresham Avenue, Westbrook, Margate","£650,000        "
4 bedroom detached house for sale,"School Lane, Blean, Canterbury","£650,000        "
6 bedroom semi-detached house for sale,"Prices Avenue, Margate, Kent","£650,000        "
3 bedroom semi-detached house for sale,"The Street, Ash, Canterbury, Kent","£650,000        "
5 bedroom house for sale,"London Road, Sholden, Deal","£650,000        "
4 bedroom detached house for sale,"Cherry Ridge, Howfield Lane, Chartham Hatch","£650,000        "
4 bedroom semi-detached house for sale,"The Drive, Chestfield, Whitstable","£650,000        "
3 bedroom apartment for sale,"Courtstairs Manor, Ramsgate","£650,000        "
2 bedroom apartment for sale,"Courtstairs Manor, Ramsgate","£650,000        "
3 bedroom detached house for sale,"Willow Woods Road, Little Mongeham","£650,000        "
3 bedroom semi-detached house for sale,"Swinburne Avenue, Broadstairs, Kent","£650,000        "
3 bedroom bungalow for sale,"Gainsborough Drive, Herne Bay","£650,000        "
2 bedroom terraced house for sale,"Victoria Road, Deal, Kent","£650,000        "
4 bedroom terraced house for sale,"Nelson Road, Whitstable","£650,000        "
3 bedroom detached bungalow for sale,"Abbots Barton Walk, Canterbury","£650,000        "
4 bedroom detached house for sale,"The Terrace, Shepherdswell, Dover, Kent","£650,000        "
4 bedroom detached house for sale,"Egerton Road, Dover","£650,000        "
4 bedroom detached house for sale,"Ebbsfleet Lane North, Ramsgate","£650,000        "
6 bedroom detached house for sale,"Ramsgate Road, Broadstairs","£650,000        "
4 bedroom detached house for sale,"Island Road, Canterbury","£650,000        "
4 bedroom detached house for sale,"Mallard Close, Herne Bay, CT6","£650,000        "
5 bedroom detached house for sale,"Silvaplana, Bobbin Lodge Hill, Chartham","£650,000        "
5 bedroom terraced house for sale,"Fort Crescent, Margate","£650,000        "
4 bedroom detached house for sale,"Watchester Avenue, Ramsgate, Kent, CT11","£650,000        "
4 bedroom detached house for sale,Herne Bay,"£650,000        "
4 bedroom detached house for sale,"Oxenden Square, Herne Bay","£650,000        "
4 bedroom detached house for sale,"Monkton Road,","£650,000        "
4 bedroom cottage for sale,"All Saints Avenue, Margate","£650,000        "
6 bedroom house for sale,"Folkestone Road, Dover","£650,000        "
6 bedroom terraced house for sale,"Grosvenor Place, Margate","£650,000        "
5 bedroom terraced house for sale,"Spencer Square, Ramsgate","£650,000        "
4 bedroom detached bungalow for sale,"Mill Lane, Herne, CT6 7DP","£650,000        "
3 bedroom apartment for sale,"Pegwell Road, Ramsgate","£650,000        "
4 bedroom detached house for sale,"Parsonage Road, Herne Bay","£650,000        "
4 bedroom cottage for sale,"Nasmyth Road, Birchington","£650,000        "
4 bedroom semi-detached house for sale,"Sacketts Hill, Broadstairs","£650,000        "
3 bedroom detached house for sale,"Wilkes Road, Broadstairs","£595,000        "
5 bedroom detached house for sale,"The Street, Stourmouth, Canterbury","£650,000        "
2 bedroom apartment for sale,"Convent Road, Kingsgate","£650,000        "
5 bedroom detached house for sale,"Greenhill Road, Herne Bay","£649,995        "
5 bedroom semi-detached house for sale,"Walmsley Road, Broadstairs","£649,995        "
3 bedroom detached bungalow for sale,Deal,"£649,950        "
4 bedroom detached house for sale,"Woodcote, Chestfield, Whitstable","£645,000        "
4 bedroom house for sale,"St. Lawrence Avenue, Ramsgate","£645,000        "
3 bedroom semi-detached house for sale,"Graystone Road, Tankerton, Whitstable","£645,000        "
4 bedroom detached house for sale,"Danes Court, Dover, CT16","£640,000        "
4 bedroom detached house for sale,"Thanet Way,","£639,995        "
3 bedroom detached bungalow for sale,"Queens Road, Tankerton, Whitstable","£635,000        "
4 bedroom detached house for sale,Broadstairs,"£635,000        "
5 bedroom detached house for sale,"Hillbrow Avenue, Herne Bay, CT6","£635,000        "
4 bedroom bungalow for sale,"Jubilee Road, Worth","£635,000        "
5 bedroom detached house for sale,"Ellis Way, Herne Bay","£635,000        "
4 bedroom detached house for sale,"Lynwood Green, Whitfield, Dover, CT16","£630,000        "
4 bedroom detached house for sale,"Grasmere Gardens, Whitstable, Kent","£630,000        "
4 bedroom detached house for sale,"Tyson Avenue, Margate","£630,000        "
3 bedroom detached bungalow for sale,"Sea View Avenue, Birchington","£630,000        "
5 bedroom detached house for sale,"Leverick Place, Ash, Canterbury","£630,000        "
5 bedroom detached house for sale,"Rayham Road, Whitstable, Kent","£627,500        "
8 bedroom detached house for sale,"Longtye Drive, Chestfield, Whitstable, Kent","£627,500        "
4 bedroom detached house for sale,"Blean Common, Canterbury","£625,000        "
3 bedroom detached house for sale,"Farley Road, Margate","£625,000        "
3 bedroom detached house for sale,"High Street, Manston, Ramsgate","£475,000        "
4 bedroom detached house for sale,"Canterbury Road, Herne, Kent","£625,000        "
6 bedroom semi-detached house for sale,"Grove Road, Ramsgate","£625,000        "
3 bedroom detached house for sale,"Tankerton Road, Whitstable","£625,000        "
5 bedroom detached house for sale,"High Street, Ramsgate","£625,000        "
5 bedroom detached house for sale,"Sanderling Road, Herne Bay, Kent, CT6","£625,000        "
4 bedroom terraced house for sale,"Kingsgate Avenue,Broadstairs,CT10 3LH","£625,000        "
4 bedroom detached house for sale,"Spring Walk, Whitstable","£625,000        "
3 bedroom semi-detached house for sale,"Church Court, Whitstable, CT5","£625,000        "
5 bedroom detached house for sale,"Field View Road, Whitfield, Dover, Kent, CT16","£625,000        "
3 bedroom detached bungalow for sale,"Botany Road, Broadstairs","£625,000        "
4 bedroom detached house for sale,"Pharos Drive, Dover, CT16","£625,000        "
3 bedroom detached house for sale,"Grenham Bay Avenue, Birchington","£625,000        "
4 bedroom detached house for sale,"Linden Avenue, Herne Bay","£625,000        "
3 bedroom detached house for sale,"Wellesley Close, Broadstairs","£625,000        "
4 bedroom detached house for sale,"Kearsney Court, Alkham Road, Dover, Kent, CT16","£625,000        "
5 bedroom semi-detached house for sale,"Canterbury Road, HERNE BAY, CT6","£625,000        "
8 bedroom house for sale,"Cornwall Gardens, Cliftonville, Margate","£625,000        "
4 bedroom detached house for sale,"Sturry Hill, Sturry, Canterbury, Kent","£625,000        "
4 bedroom detached house for sale,"Chapel Lane, Blean, Canterbury","£625,000        "
6 bedroom terraced house for sale,"Chapel Place, Ramsgate","£625,000        "
4 bedroom detached house for sale,"Larkey View, Chartham, Canterbury","£625,000        "
3 bedroom semi-detached house for sale,"Nelson Road, Whitstable, CT5","£625,000        "
5 bedroom detached house for sale,"Teal Drive, Herne Bay","£625,000        "
5 bedroom semi-detached house for sale,"Grove Road, Ramsgate, Kent","£625,000        "
3 bedroom detached house for sale,"Mexborough Square, Aylesham, Canterbury","£350,000        "
4 bedroom end of terrace house for sale,"Ellington Road, Ramsgate","£625,000        "
4 bedroom house for sale,"Kingsgate Avenue, Broadstairs","£625,000        "
3 bedroom detached house for sale,"Ocean Close, Birchington, Kent","£625,000        "
4 bedroom detached house for sale,"Nurserylands, Herne Bay","£625,000        "
5 bedroom house for sale,"The Street, Adisham, Canterbury, Kent","£625,000        "
5 bedroom detached house for sale,"Spenser Road, Herne Bay","£625,000        "
4 bedroom semi-detached house for sale,"Swinburne Avenue, Broadstairs","£625,000        "
4 bedroom detached house for sale,"Carlton Avenue, Broadstairs, Kent, CT10","£625,000        "
4 bedroom detached house for sale,Broadstairs,"£625,000        "
4 bedroom detached house for sale,"Monastery Avenue, Dover","£625,000        "
5 bedroom detached house for sale,"Radley Close, Broadstairs","£625,000        "
4 bedroom semi-detached house for sale,"Edmanson Avenue, Westbrook, Margate, CT9","£625,000        "
9 bedroom terraced house for sale,"Folkestone Road, Dover, CT17","£620,000        "
4 bedroom semi-detached house for sale,"Douglas Avenue, Whitstable, Kent","£620,000        "
3 bedroom flat for sale,"Beach Drive, Ramsgate, CT11","£620,000        "
4 bedroom detached house for sale,"Avenue Gardens, Cliftonville","£620,000        "
4 bedroom detached house for sale,"Parish Close,","£615,000        "
4 bedroom semi-detached house for sale,"Alma Road, Beltinge, Herne Bay, Kent","£615,000        "
5 bedroom detached bungalow for sale,"Bradstow Way, Broadstairs","£615,000        "
5 bedroom detached house for sale,"Chestfield Road, Chestfield, Whitstable, Kent","£611,000        "
4 bedroom detached house for sale,"Vipan Way, Plot 239, Canterbury","£610,000        "
4 bedroom semi-detached house for sale,"Queens Road, Broadstairs, Kent, CT10","£610,000        "
4 bedroom detached house for sale,Cockering Road,"£604,995        "
4 bedroom detached house for sale,"Bayview Road, Whitstable, Kent","£600,000        "
4 bedroom detached house for sale,"Whitstable Heights, Whitstable","£520,000        "
5 bedroom chalet for sale,"Cross Road, Walmer, Deal","£600,000        "
3 bedroom detached house for sale,"Raymond Avenue, Canterbury","£600,000        "
3 bedroom terraced house for sale,"Walpole Cottage, The Friars, Canterbury","£600,000        "
4 bedroom detached house for sale,"Kingfisher Walk, St. Peters Road, Broadstairs, Kent, CT10","£600,000        "
3 bedroom bungalow for sale,"Salisbury Road, Walmer, Deal, Kent, CT14","£600,000        "
3 bedroom terraced house for sale,"St Mary's Street, Canterbury","£600,000        "
3 bedroom detached house for sale,"High Street, St Maragret's- At-Cliffe, Nr Dover, CT15","£600,000        "
4 bedroom detached bungalow for sale,"Tippledore Lane, Broadstairs","£600,000        "
4 bedroom detached house for sale,"Woodnesborough Lane, Eastry, Sandwich","£600,000        "
2 bedroom apartment for sale,"North Foreland Road, Broadstairs","£600,000        "
3 bedroom end of terrace house for sale,"Kingsgate Avenue,Broadstairs,CT10 3LH","£600,000        "
6 bedroom house for sale,"Fordwich Road, Sturry, Canterbury","£600,000        "
4 bedroom house for sale,"Island Wall, Whitstable","£600,000        "
4 bedroom detached bungalow for sale,"Honey Hill, Whitstable","£600,000        "
5 bedroom detached house for sale,"The Broadway, Herne Bay","£600,000        "
4 bedroom detached house for sale,"Kittiwake Close, Herne Bay, Kent","£600,000        "
2 bedroom apartment for sale,"Ramsgate,","£600,000        "
4 bedroom semi-detached house for sale,"Park Avenue, Deal, Kent, CT14","£600,000        "
3 bedroom link detached house for sale,"Green Road, Birchington, Kent","£600,000        "
6 bedroom block of apartments for sale,Margate,"£600,000        "
4 bedroom end of terrace house for sale,"Abbots Hill, Ramsgate, Kent, CT11","£600,000        "
3 bedroom bungalow for sale,"London Road, Temple Ewell, Dover, Kent, CT16","£600,000        "
6 bedroom house for sale,"Ramsgate Road, Margate","£600,000        "
3 bedroom house for sale,"Kingsgate Avenue, Broadstairs","£600,000        "
2 bedroom flat for sale,"Eastern Esplanade, Margate","£300,000        "
4 bedroom detached bungalow for sale,"Kenilworth Close, St Margarets Bay, Dover, Kent","£600,000        "
4 bedroom detached house for sale,"Bayview Road, Whitstable","£600,000        "
5 bedroom semi-detached house for sale,"Manston Court Road, Manston, Ramsgate","£600,000        "
4 bedroom detached house for sale,"Osborne Road, Broadstairs, Kent, CT10","£600,000        "
5 bedroom terraced house for sale,"Effingham Street, Ramsgate","£600,000        "
3 bedroom detached bungalow for sale,"Woodvale Avenue, Chestfield, Whitstable, CT5","£600,000        "
3 bedroom detached house for sale,"Green Lane, Broadstairs, Kent","£600,000        "
6 bedroom house for sale,"Grand Drive, Herne Bay","£600,000        "
4 bedroom detached house for sale,"Honey Hill, Whitstable, CT5","£600,000        "
6 bedroom chalet for sale,"Tivoli Park Avenue, Margate","£600,000        "
3 bedroom detached bungalow for sale,"Grand Drive, Herne Bay","£600,000        "
3 bedroom house for sale,"The List, Wickhambreaux, Canterbury","£600,000        "
4 bedroom detached house for sale,"The Old Fire Station, Reach Road, St. Margarets At Cliffe","£599,995        "
3 bedroom semi-detached house for sale,"King Edward Avenue, Broadstairs","£599,995        "
5 bedroom detached house for sale,"Grenham Road, Birchington","£599,995        "
4 bedroom detached house for sale,"High Street, Manston, Ramsgate","£599,995        "
5 bedroom semi-detached house for sale,"Mickleburgh Avenue, Herne Bay","£599,950        "
3 bedroom detached house for sale,"Walmsley Road, Broadstairs","£599,000        "
4 bedroom detached bungalow for sale,"Canute Road, Birchington","£598,000        "
3 bedroom house for sale,"Kings Avenue, Broadstairs","£595,000        "
4 bedroom detached house for sale,"Flamingo Drive, Herne Bay","£595,000        "
3 bedroom detached bungalow for sale,"Beechcroft, Chestfield, WHITSTABLE","£595,000        "
5 bedroom detached house for sale,"Helding Close, Herne Bay","£595,000        "
3 bedroom detached bungalow for sale,St. Margarets Bay,"£595,000        "
3 bedroom semi-detached house for sale,"The Drove, Chestfield, CT5","£795,000        "
4 bedroom detached house for sale,"Reculver Road, Herne Bay","£595,000        "
4 bedroom detached house for sale,"Reading Street, Broadstairs","£595,000        "
4 bedroom detached house for sale,"Grange Way, Broadstairs","£595,000        "
3 bedroom detached bungalow for sale,"Capel Close, Broadstairs","£595,000        "
7 bedroom semi-detached house for sale,"Westgate Bay Avenue, Westgate-On-Sea","£595,000        "
4 bedroom semi-detached house for sale,Broadstairs,"£595,000        "
4 bedroom detached house for sale,"Minnis Road, Birchington","£595,000        "
4 bedroom house for sale,"Kingsdown Road, Walmer, Deal","£595,000        "
3 bedroom detached bungalow for sale,"Clifford Road, Whitstable","£595,000        "
8 bedroom terraced house for sale,"Westcliff Road, Margate","£595,000        "
4 bedroom end of terrace house for sale,"Haven Bank, Sandwich","£595,000        "
2 bedroom detached bungalow for sale,"The Street, Boughton-Under-Blean, Faversham","£595,000        "
3 bedroom detached house for sale,"1 Fair Street, Broadstairs","£595,000        "
3 bedroom detached house for sale,"1 Fair Street, Broadstairs","£595,000        "
4 bedroom detached house for sale,Broadstairs,"£595,000        "
3 bedroom detached house for sale,"Wilkes Road, Broadstairs","£595,000        "
3 bedroom detached bungalow for sale,"The Street, Stourmouth, Canterbury","£595,000        "
3 bedroom detached house for sale,"Wilkes Road, Broadstairs","£595,000        "
3 bedroom semi-detached house for sale,"Fountain Street, Whitstable, Kent","£594,500        "
4 bedroom detached house for sale,"Manor Road, Whitstable, Kent","£594,500        "
4 bedroom detached bungalow for sale,"Northdown Road, Cliftonville, Margate, Kent","£590,000        "
4 bedroom detached house for sale,"Island Road,","£589,995        "
4 bedroom detached house for sale,"Columbine Close, Whitstable","£589,995        "
4 bedroom house for sale,"Sea View Road, Herne Bay","£585,000        "
1 bedroom flat for sale,"Brunswick Square, Herne Bay","£150,000        "
2 bedroom detached bungalow for sale,"Faversham Road, Seasalter, Whitstable","£585,000        "
4 bedroom detached house for sale,"Vipan Way, Plot 233, Canterbury","£585,000        "
4 bedroom detached house for sale,"Northdown Park Road, Cliftonville","£585,000        "
3 bedroom detached bungalow for sale,"Hodgson Road, Seasalter, Whitstable","£585,000        "
3 bedroom detached house for sale,"Blean Common, Blean","£585,000        "
5 bedroom detached house for sale,"Moorland Road, Shepherdswell","£585,000        "
3 bedroom detached bungalow for sale,"Rosewood Way, Birchington","£580,000        "
4 bedroom bungalow for sale,"Cliff Avenue, Beltinge","£580,000        "
4 bedroom detached house for sale,"Lancaster Road, Canterbury CT1 3QE","£580,000        "
3 bedroom house for sale,"Broadbank Way, Canterbury, Kent, CT1","£580,000        "
3 bedroom detached bungalow for sale,"Hodgson Road, Seasalter, Whitstable","£579,000        "
4 bedroom semi-detached house for sale,"Ethel Road, Broadstairs, Kent","£575,000        "
4 bedroom detached house for sale,"Chaucer Mews, Upper Harbledown, Canterbury","£575,000        "
3 bedroom terraced house for sale,"Water Street, Deal, Kent","£575,000        "
3 bedroom detached bungalow for sale,"Fleetwood Avenue, Herne Bay","£575,000        "
4 bedroom detached house for sale,"Gloucester Avenue, Margate","£575,000        "
4 bedroom house for sale,"Sea Street, Herne Bay","£575,000        "
3 bedroom house for sale,"The Length, St. Nicholas At Wade, Birchington","£575,000        "
3 bedroom house for sale,"Randolph Close, Canterbury","£575,000        "
7 bedroom end of terrace house for sale,"Albion Court, Harold Road","£575,000        "
3 bedroom semi-detached house for sale,"Baddlesmere Road, Tankerton, Whitstable","£575,000        "
2 bedroom detached bungalow for sale,"Kings Avenue, Broadstairs","£575,000        "
3 bedroom semi-detached house for sale,"The Street,Eythorne,Kent,CT15 4BG","£575,000        "
3 bedroom character property for sale,"The Street, Eythorne, Dover","£575,000        "
3 bedroom semi-detached house for sale,"Herne Bay Road,","£385,995        "
4 bedroom detached house for sale,"Malvern Park, Herne Bay","£575,000        "
5 bedroom detached house for sale,"Eversleigh Rise, Whitstable","£575,000        "
4 bedroom detached house for sale,"Nethercourt Farm Road, Ramsgate, Kent","£575,000        "
3 bedroom house for sale,"Canterbury Road, Wingham","£575,000        "
4 bedroom town house for sale,Canterbury,"£575,000        "
4 bedroom house for sale,"Vale Road, Ramsgate","£575,000        "
4 bedroom terraced house for sale,"Ethelbert Road, Cliftonville, Margate","£575,000        "
3 bedroom detached bungalow for sale,"Botany Road, Broadstairs","£575,000        "
5 bedroom detached house for sale,"Sunnyhill Road, Herne Bay, CT6","£575,000        "
4 bedroom detached bungalow for sale,"Botany Road, Broadstairs","£575,000        "
4 bedroom end of terrace house for sale,"The Street, Boughton-Under-Blean, Faversham","£575,000        "
4 bedroom detached bungalow for sale,"New House Lane, Canterbury","£575,000        "
3 bedroom bungalow for sale,"Queens Avenue, Broadstairs, CT10","£575,000        "
4 bedroom detached house for sale,"Salisbury Road, Walmer, Deal","£575,000        "
3 bedroom detached bungalow for sale,"Broad Lane, Betteshanger, CT14 0LR","£575,000        "
3 bedroom detached bungalow for sale,"The Leas, Chestfield, Whitstable","£575,000        "
5 bedroom semi-detached house for sale,"Goodwin Road, Pegwell","£575,000        "
4 bedroom semi-detached house for sale,"London Road, Ramsgate, CT11","£575,000        "
4 bedroom terraced house for sale,"Haven Bank, Sandwich","£575,000        "
3 bedroom semi-detached house for sale,St Margaret's at Cliffe,"£575,000        "
4 bedroom terraced house for sale,"Alfred Road, Minnis Bay, Birchington, CT7","£575,000        "
1 bedroom detached bungalow for sale,"Chrysler Avenue, Herne Bay","£575,000        "
4 bedroom detached house for sale,"Speedwell Road, Whitstable, Kent","£575,000        "
6 bedroom terraced house for sale,"St. Stephen`s Road, Canterbury","£575,000        "
3 bedroom semi-detached bungalow for sale,"Newington Road, Ramsgate","£310,000        "
6 bedroom terraced house for sale,"Rancorn Road, Westbrook","£575,000        "
3 bedroom detached house for sale,"The Russets, Chestfield, WHITSTABLE","£575,000        "
4 bedroom semi-detached house for sale,"Stanley Road, Broadstairs, Kent","£575,000        "
4 bedroom semi-detached house for sale,"Margate Road, Ramsgate, Kent","£575,000        "
4 bedroom semi-detached house for sale,"Nunnery Road, Canterbury","£575,000        "
3 bedroom semi-detached house for sale,"Marine Gap, Whitstable","£575,000        "
4 bedroom house for sale,"Singledge Lane, Whitfield, Dover","£575,000        "
3 bedroom detached house for sale,"Rayham Road, South Tankerton, Whitstable","£575,000        "
5 bedroom house for sale,"Pegwell Avenue, Ramsgate","£575,000        "
4 bedroom detached house for sale,"Mount Pleasant, Minster, Ramsgate","£575,000        "
3 bedroom detached bungalow for sale,"St Peters Road, Margate","£575,000        "
5 bedroom terraced house for sale,"Chapel Place, Ramsgate, Kent","£570,000        "
4 bedroom detached house for sale,"Ramsgate Road, Broadstairs, Kent","£570,000        "
3 bedroom bungalow for sale,"Westmarsh, Canterbury, Kent","£570,000        "
3 bedroom detached house for sale,Cockering Road,"£569,995        "
3 bedroom house for sale,"Green Road, Birchington","£569,995        "
5 bedroom detached house for sale,"Poulton Lane, Ash","£569,000        "
4 bedroom semi-detached house for sale,"Station Road West, Canterbury, CT2","£568,000        "
4 bedroom detached house for sale,"Flamingo Drive, Herne Bay, Kent","£565,000        "
5 bedroom detached house for sale,Station Road,"£565,000        "
5 bedroom detached house for sale,"The Kingsdown, Plot 92, Millers Retreat, Station Road, Walmer","£565,000        "
3 bedroom detached house for sale,"Cherry Orchard, Chestfield, Whitstable","£565,000        "
5 bedroom detached house for sale,Station Road,"£565,000        "
4 bedroom detached house for sale,"Whitstable Heights, Whitstable","£565,000        "
4 bedroom semi-detached house for sale,"Heights Terrace, Dover","£400,000        "
4 bedroom detached house for sale,"Kingsgate Avenue, Broadstairs, Kent","£565,000        "
5 bedroom detached house for sale,Brindle Grove,"£565,000        "
4 bedroom detached house for sale,"Upper Street, Tilmanstone, Deal, Kent","£561,500        "
2 bedroom bungalow for sale,"Epple Bay Avenue, Birchington","£560,000        "
4 bedroom detached house for sale,"Dove Close, Herne Bay, Kent","£560,000        "
4 bedroom detached house for sale,"Montagu Place, Woodnesborough Road, Sandwich, Kent, CT13","£560,000        "
4 bedroom detached house for sale,"Major Close, Whitstable","£560,000        "
5 bedroom detached house for sale,"The Kingsdown, Plot 54, Millers Retreat, Station Road, Walmer","£560,000        "
3 bedroom detached bungalow for sale,"Old Fold, Chestfield, Whitstable","£560,000        "
5 bedroom semi-detached house for sale,"Gloucester Avenue, Cliftonville, Margate, Kent","£560,000        "
4 bedroom semi-detached house for sale,"Connaught Barracks, Dover, Kent","£555,000        "
4 bedroom detached house for sale,"Island Road,","£554,995        "
4 bedroom detached house for sale,"Island Road,","£554,995        "
6 bedroom semi-detached house for sale,"Cornwall Gardens, Cliftonville, Margate, Kent","£550,000        "
5 bedroom bungalow for sale,"Hillside Road, Whitstable, CT5","£550,000        "
3 bedroom detached bungalow for sale,"Alpha Road, Birchington","£550,000        "
3 bedroom detached house for sale,"Devonshire Gardens, Margate","£550,000        "
4 bedroom detached house for sale,"Beltinge Road, Herne Bay","£550,000        "
3 bedroom bungalow for sale,"Kingston Close, HERNE BAY, CT6","£550,000        "
5 bedroom semi-detached house for sale,"Rough Common Road, Rough Common, Canterbury","£550,000        "
4 bedroom semi-detached house for sale,"Church Street, Tankerton, Whitstable","£550,000        "
4 bedroom semi-detached house for sale,"Mount Road, Canterbury","£550,000        "
4 bedroom detached house for sale,"The Cleaves, Plot 32, Millers Retreat, Station Road, Walmer, Deal","£550,000        "
3 bedroom bungalow for sale,"Queens Avenue, Broadstairs","£550,000        "
3 bedroom house for sale,"Hereson Road, Ramsgate","£299,995        "
3 bedroom detached house for sale,"Dargate Road, Yorkletts, Whitstable","£550,000        "
3 bedroom flat for sale,"Royal Crescent, St. Augustines Road, Ramsgate, Kent, CT11","£550,000        "
5 bedroom house for sale,"Albion Road, Ramsgate","£550,000        "
4 bedroom detached house for sale,Station Road,"£550,000        "
4 bedroom detached house for sale,Station Road,"£550,000        "
4 bedroom house for sale,"The Broadway, Herne Bay","£550,000        "
2 bedroom detached bungalow for sale,"Ellison Close, Chestfield.","£550,000        "
4 bedroom detached house for sale,"Tradewinds, Whitstable, Kent","£550,000        "
4 bedroom detached house for sale,"Orchard Road, Margate, CT9","£550,000        "
4 bedroom semi-detached house for sale,"Northdown Park Road, Margate, Kent","£550,000        "
4 bedroom detached house for sale,"The Broadway, Herne Bay","£550,000        "
3 bedroom detached house for sale,"Park Avenue, Broadstairs","£550,000        "
5 bedroom chalet for sale,"Spenser Road, Herne Bay","£550,000        "
4 bedroom detached house for sale,"Broomfield Road, Herne Bay","£550,000        "
5 bedroom semi-detached house for sale,"Northumberland Avenue, Cliftonville, Margate, Kent","£550,000        "
Studio flat for sale,"High Street, Sturry, CT2","£550,000        "
3 bedroom detached bungalow for sale,"Stanley Road, Whitstable, Kent","£550,000        "
5 bedroom detached bungalow for sale,"Gloucester Avenue, Margate","£550,000        "
4 bedroom detached bungalow for sale,"Bridge Down, Bridge, Canterbury","£550,000        "
4 bedroom detached bungalow for sale,"Gainsborough Drive, Herne Bay, CT6","£550,000        "
4 bedroom detached house for sale,"Beltinge Road, Herne Bay, CT6","£550,000        "
3 bedroom detached bungalow for sale,"Lauriston Mount, Broadstairs","£550,000        "
3 bedroom detached bungalow for sale,"Linden Avenue, Herne Bay","£550,000        "
5 bedroom detached house for sale,"Thistle Drive, Whitstable","£550,000        "
3 bedroom semi-detached house for sale,"Chantry Park, Sarre, Birchington","£449,995        "
5 bedroom detached house for sale,"St. Richards Road, Deal","£550,000        "
5 bedroom house for sale,"Northwood Road, Ramsgate","£550,000        "
4 bedroom detached house for sale,"Mandarin Lane, Herne Bay, CT6","£550,000        "
3 bedroom house for sale,"Lauriston Mount, Broadstairs","£550,000        "
3 bedroom bungalow for sale,"Windmill Road, Herne Bay","£550,000        "
3 bedroom penthouse for sale,"Tower House, Canterbury Road, Westgate-On-Sea","£550,000        "
4 bedroom detached bungalow for sale,"Gorse Lane, Herne Bay, Kent","£550,000        "
3 bedroom apartment for sale,"Tower House, Canterbury Road, Westgate-On-Sea","£550,000        "
4 bedroom house for sale,"Minster Road, Monkton, Ramsgate","£550,000        "
4 bedroom bungalow for sale,"Detached Property with Amazing Views, Ripple, Deal CT14 8JL","£550,000        "
4 bedroom semi-detached house for sale,"Fairview, Staple Street, Dunkirk","£550,000        "
3 bedroom apartment for sale,"Tower House, Canterbury Road, Westgate-On-Sea","£550,000        "
3 bedroom detached bungalow for sale,"Stone Road, Broadstairs","£550,000        "
4 bedroom detached house for sale,"Linden Road, Westgate-On-Sea","£550,000        "
4 bedroom detached house for sale,"Beltinge Road, Herne Bay, Kent","£550,000        "
3 bedroom detached bungalow for sale,"Lawrence Gardens, HERNE BAY, CT6","£550,000        "
4 bedroom town house for sale,"Shepherdsgate, Canterbury","£550,000        "
4 bedroom semi-detached house for sale,Broadstairs,"£550,000        "
4 bedroom semi-detached house for sale,"Albion Road, Birchington","£550,000        "
3 bedroom terraced house for sale,"Victoria Street, Whitstable, CT5","£550,000        "
3 bedroom detached bungalow for sale,"Berkeley Road, Birchington, Kent","£550,000        "
3 bedroom detached house for sale,"Herne Bay Road, Tankerton, Whitstable","£550,000        "
3 bedroom detached house for sale,"The Street, Eythorne, Dover, Kent, CT15","£550,000        "
4 bedroom semi-detached house for sale,Broadstairs,"£550,000        "
4 bedroom detached house for sale,"Island Road,","£464,995        "
3 bedroom detached house for sale,"London Road, Dover, Kent","£550,000        "
3 bedroom detached bungalow for sale,"Linden Avenue, Herne Bay","£550,000        "
4 bedroom detached house for sale,"Lime Tree House, The Street, Boughton-under-Blean","£550,000        "
4 bedroom detached house for sale,"Broomfield Road, Herne Bay","£550,000        "
4 bedroom flat for sale,"High Street, Herne Bay","£550,000        "
3 bedroom semi-detached house for sale,"Wellington Road, Deal, CT14","£550,000        "
4 bedroom house for sale,"Hill House Drive, Minster, Ramsgate","£550,000        "
3 bedroom detached house for sale,"The Broadway, Herne Bay","£550,000        "
5 bedroom bungalow for sale,"Northwood Road, Ramsgate, Kent, CT12","£550,000        "
4 bedroom detached house for sale,"Dence Close, Herne Bay","£550,000        "
3 bedroom detached house for sale,"Ashford Road, Canterbury","£550,000        "
2 bedroom terraced house for sale,"Palace Street, Canterbury, CT1","£550,000        "
2 bedroom terraced house for sale,"Nelson Road, Whitstable","£550,000        "
3 bedroom terraced house for sale,"Harcourt Drive, Canterbury","£550,000        "
4 bedroom end of terrace house for sale,"Claremont Road, Deal, Kent, CT14","£550,000        "
4 bedroom detached house for sale,"Cormorant Way, Herne Bay","£550,000        "
4 bedroom detached house for sale,"Sydney Road, Walmer, Deal","£550,000        "
5 bedroom terraced house for sale,"Regent Street, Whitstable, CT5","£550,000        "
4 bedroom detached house for sale,"The Broadway, Herne Bay","£550,000        "
4 bedroom detached house for sale,"Linden Road, Westgate-on-Sea","£550,000        "
4 bedroom detached house for sale,"Eliots Close, Margate","£550,000        "
4 bedroom detached house for sale,"Winchester Gardens, Canterbury","£550,000        "
3 bedroom detached house for sale,"Church Lane, Deal, Kent, CT14","£550,000        "
4 bedroom chalet for sale,"Grand Drive, Herne Bay","£550,000        "
2 bedroom semi-detached house for sale,"1 Baldock Road,","£239,995        "
3 bedroom detached bungalow for sale,"Tina Gardens, Broadstairs","£550,000        "
3 bedroom detached bungalow for sale,"East Studdal, Dover","£550,000        "
2 bedroom detached bungalow for sale,"Woodland Way, Broadstairs","£550,000        "
4 bedroom detached house for sale,"Jubilee Road, Littlebourne, Canterbury","£550,000        "
3 bedroom bungalow for sale,"Brewery Lane, Bridge, Canterbury","£550,000        "
3 bedroom semi-detached house for sale,"Prices Avenue, Cliftonville , Margate","£550,000        "
3 bedroom bungalow for sale,"Dambridge Farm Road, Canterbury","£550,000        "
2 bedroom cottage for sale,"Sea Wall, Whitstable, CT5","£550,000        "
5 bedroom chalet for sale,"Blean Common, Blean, Canterbury, CT2","£550,000        "
3 bedroom bungalow for sale,"Fordwich Road, Sturry, Canterbury, Kent, CT2","£550,000        "
4 bedroom house for sale,"The Broadway, Herne Bay","£550,000        "
4 bedroom detached house for sale,"Hadleigh Gardens, Herne Bay","£549,995        "
4 bedroom detached house for sale,"Greenhill Road,","£549,995        "
4 bedroom detached house for sale,"St. Richards Road, Deal","£549,950        "
2 bedroom apartment for sale,"Joss Gap Road, Broadstairs","£549,000        "
4 bedroom detached house for sale,"Whitstable Heights, Whitstable","£547,500        "
4 bedroom detached house for sale,"Beech Avenue, Chartham","£545,000        "
4 bedroom detached house for sale,"Whitstable Heights, Whitstable","£545,000        "
3 bedroom detached bungalow for sale,"Shepherds Walk, Chestfield, Whitstable","£540,000        "
4 bedroom detached house for sale,Dover Road,"£540,000        "
3 bedroom detached house for sale,"Springfield Road, Cliftonville, Margate","£535,000        "
5 bedroom house for sale,"Foreland Avenue, Margate","£535,000        "
4 bedroom semi-detached house for sale,"Burnan Road, Whitstable","£535,000        "
4 bedroom detached house for sale,"Cherry Orchard, Chestfield, Whitstable, Kent","£535,000        "
3 bedroom semi-detached house for sale,"Whitstable Heights, Whitstable","£417,500        "
4 bedroom bungalow for sale,"Rydal Avenue, Ramsgate","£535,000        "
4 bedroom semi-detached house for sale,"Cliftonville Avenue, Margate","£535,000        "
3 bedroom detached house for sale,"Clare Road, Tankerton, Whitstable","£535,000        "
3 bedroom detached house for sale,"Balfour Road, Walmer, Deal","£535,000        "
4 bedroom detached house for sale,"Burton Fields, Herne Bay","£535,000        "
3 bedroom detached bungalow for sale,"Langdon Close, St Margaret`s At Cliffe","£535,000        "
3 bedroom semi-detached house for sale,"Botany Road, Kingsgate, Broadstairs, Kent","£535,000        "
3 bedroom bungalow for sale,"Sandwich Road, Eythorne, Dover, Kent","£535,000        "
3 bedroom detached house for sale,"Thanet Way,","£534,995        "
4 bedroom detached house for sale,"School Lane, Stourmouth, Canterbury, Kent","£530,000        "
3 bedroom terraced house for sale,"West Street, Deal, Kent, Kent","£530,000        "
5 bedroom detached house for sale,"Davy Street, Aylesham, Canterbury, CT3","£530,000        "
4 bedroom detached house for sale,"Stanley Road, Whitstable","£530,000        "
4 bedroom detached house for sale,"Greenhill Road, Herne Bay","£530,000        "
6 bedroom semi-detached house for sale,"Northdown Park Road, Margate","£525,000        "
6 bedroom detached house for sale,"Victoria Road, Margate, Kent","£525,000        "
4 bedroom detached house for sale,"Laleham Gardens, Margate","£525,000        "
2 bedroom detached bungalow for sale,"Princess Close, Tankerton, Whitstable","£525,000        "
3 bedroom detached house for sale,"London Road, Ramsgate","£525,000        "
7 bedroom semi-detached house for sale,"Princes Gardens, Margate","£525,000        "
4 bedroom house for sale,"Pier Avenue, Herne Bay","£525,000        "
4 bedroom bungalow for sale,"Coxhill Gardens, Dover, Kent","£525,000        "
4 bedroom semi-detached house for sale,"Sandhurst Road, Cliftonville, Margate, Kent","£525,000        "
2 bedroom apartment for sale,"Marine Parade, Tankerton, Whitstable","£525,000        "
4 bedroom detached house for sale,"Mallard Close, Herne Bay, CT6","£650,000        "
4 bedroom detached house for sale,The Length,"£525,000        "
4 bedroom detached house for sale,"Lower Road, River, Dover, CT17","£525,000        "
3 bedroom detached bungalow for sale,"Clover Rise, Whitstable","£525,000        "
3 bedroom chalet for sale,"Colewood Road, Whitstable, CT5","£525,000        "
4 bedroom end of terrace house for sale,"Garfield Road, Westbrook, Margate, Kent","£525,000        "
3 bedroom end of terrace house for sale,"Victoria Road, Deal, Kent","£525,000        "
4 bedroom detached house for sale,"Eythorne Road, Shepherdswell, DOVER","£525,000        "
5 bedroom semi-detached house for sale,"Mayfield Villas Station Road, Ken, CT15","£525,000        "
3 bedroom detached house for sale,Littlebourne,"£525,000        "
5 bedroom terraced house for sale,"Penshurst Road, Ramsgate, Kent","£525,000        "
3 bedroom detached bungalow for sale,"Columbia Avenue, Whitstable","£525,000        "
7 bedroom house for sale,"Princes Gardens, Margate","£525,000        "
4 bedroom end of terrace house for sale,"Garfield Road, Margate, CT9","£525,000        "
3 bedroom detached bungalow for sale,"George Hill Road, Broadstairs","£525,000        "
5 bedroom semi-detached house for sale,"Masons Rise, Broadstairs","£525,000        "
3 bedroom semi-detached house for sale,"Cobham Close, Canterbury","£525,000        "
3 bedroom detached house for sale,"Pegwell Avenue, Ramsgate","£525,000        "
4 bedroom detached house for sale,"Barnes Way, Herne Bay, Kent","£525,000        "
3 bedroom semi-detached bungalow for sale,"Graystone Road, Tankerton, Whitstable","£525,000        "
4 bedroom detached house for sale,"Cowper Road, Dover, Kent, CT17","£525,000        "
4 bedroom house for sale,"Eastchurch Road, Cliftonville, Margate","£525,000        "
3 bedroom semi-detached house for sale,"Cliftonville Avenue, Margate, CT9","£525,000        "
4 bedroom bungalow for sale,"Rydal Avenue, Ramsgate","£525,000        "
3 bedroom detached house for sale,"The Little Barn, Gas Lane, Boughton-under-Blean","£525,000        "
2 bedroom semi-detached bungalow for sale,"Hereford Gardens, Birchington","£380,000        "
4 bedroom detached house for sale,The Length,"£525,000        "
4 bedroom house for sale,"Coxhill Gardens, River","£525,000        "
4 bedroom semi-detached house for sale,"Linden Avenue, Broadstairs","£525,000        "
3 bedroom terraced house for sale,"Nelson Road, Whitstable, CT5","£525,000        "
4 bedroom semi-detached house for sale,Monkton Street,"£525,000        "
4 bedroom terraced house for sale,"Duke Street, Deal, Kent","£525,000        "
6 bedroom detached house for sale,"St. Thomas Hill, Canterbury","£525,000        "
4 bedroom semi-detached house for sale,"St. Michaels Close, Rough Common, Canterbury","£525,000        "
4 bedroom semi-detached house for sale,"Canute Road, Birchington","£525,000        "
3 bedroom apartment for sale,"Dover Road, Sandwich","£525,000        "
5 bedroom detached house for sale,"Epple Bay Road, Birchington","£525,000        "
3 bedroom flat for sale,Canterbury,"£525,000        "
4 bedroom detached house for sale,"Northdown Way, Margate","£525,000        "
3 bedroom detached bungalow for sale,"Gorse Lane, Herne Bay, CT6","£525,000        "
3 bedroom semi-detached bungalow for sale,"Laurensfield, Minster","£525,000        "
4 bedroom detached house for sale,"Greenhill Road,","£524,995        "
5 bedroom detached house for sale,"Millyard Road, Aylesham, Canterbury","£520,000        "
3 bedroom detached bungalow for sale,Upper Walmer,"£520,000        "
4 bedroom detached house for sale,"Collards Close, Ramsgate","£520,000        "
4 bedroom detached house for sale,"Whitstable Heights, Whitstable","£520,000        "
2 bedroom flat for sale,"Queens Gardens, Broadstairs","£520,000        "
3 bedroom detached bungalow for sale,"Sondes Close, Herne, Herne Bay, Kent","£520,000        "
4 bedroom detached house for sale,"Hunting Gate, Birchington","£520,000        "
3 bedroom detached bungalow for sale,"Milner Road, Seasalter, Whitstable, Kent","£520,000        "
2 bedroom terraced house for sale,"Whitstable Heights, Whitstable","£322,500        "
4 bedroom detached house for sale,"Greenhill Road,","£519,995        "
4 bedroom detached house for sale,"Whitstable Heights, Whitstable","£515,000        "
3 bedroom detached bungalow for sale,"Beltinge Road, Herne Bay","£515,000        "
3 bedroom detached house for sale,"Holly Gardens, Cliftonville, Margate","£515,000        "
4 bedroom detached house for sale,"Sandhurst Road, Palm Bay","£515,000        "
3 bedroom detached house for sale,"Island Road,","£514,995        "
4 bedroom detached house for sale,"Chequer Lane,","£514,995        "
4 bedroom detached house for sale,"Greenhill Road,","£511,995        "
3 bedroom detached house for sale,"Connaught Barracks, Dover, Kent","£510,000        "
3 bedroom detached bungalow for sale,"Harmsworth Gardens, Broadstairs","£510,000        "
3 bedroom terraced house for sale,"Best Lane, Canterbury, Kent","£510,000        "
3 bedroom semi-detached house for sale,"Lanthorne Road,","£510,000        "
3 bedroom detached house for sale,"Orchard Close, St Nicholas At Wade, Birchington, CT7","£510,000        "
5 bedroom detached house for sale,"Crundale Way, Margate, Cliftonville","£510,000        "
4 bedroom detached house for sale,"Chequer Lane,","£509,995        "
4 bedroom detached house for sale,"Herne Bay Road,","£509,995        "
4 bedroom detached house for sale,"Thanet Way,","£507,995        "
3 bedroom semi-detached house for sale,"Lanthorne Road,","£505,000        "
4 bedroom detached house for sale,"Thanet Way,","£504,995        "
3 bedroom bungalow for sale,"St. Leonards Road, Deal, Kent, CT14","£500,000        "
3 bedroom detached bungalow for sale,"Common Lane, River, Dover","£500,000        "
3 bedroom detached bungalow for sale,"Dambridge Farm Road, Wingham, Canterbury","£500,000        "
2 bedroom detached house for sale,"Middle Wall, Whitstable","£500,000        "
4 bedroom terraced house for sale,"Spellers Court, Love Lane, Margate","£500,000        "
2 bedroom penthouse for sale,"Ramsgate,","£735,000        "
4 bedroom end of terrace house for sale,"Plains Of Waterloo, Ramsgate","£500,000        "
3 bedroom semi-detached house for sale,"Bolts Hill, Chartham, Canterbury","£500,000        "
4 bedroom barn conversion for sale,"Manor Mews, Ringwould, Deal","£500,000        "
3 bedroom semi-detached house for sale,"Foreland Avenue, Cliftonville","£500,000        "
3 bedroom link detached house for sale,"Selwyn Drive, Broadstairs, Kent","£500,000        "
4 bedroom detached house for sale,"Merlin Avenue, Whitfield, Nr Dover, CT16","£500,000        "
2 bedroom terraced house for sale,"Strand Street, Sandwich, Kent","£500,000        "
3 bedroom terraced house for sale,"St. Peter's Lane, Canterbury, Kent, CT1","£500,000        "
4 bedroom detached house for sale,"Primrose Way, Chestfield, Whitstable","£500,000        "
3 bedroom house for sale,"Dover Road, Sandwich","£500,000        "
3 bedroom detached house for sale,"Selwyn Drive, Broadstairs, CT10","£500,000        "
3 bedroom detached bungalow for sale,"George V Avenue, Margate, Kent","£500,000        "
4 bedroom detached house for sale,"Arundel Road, Cliffsend, Ramsgate","£500,000        "
4 bedroom detached house for sale,"Cornwallis Avenue, Beltinge, Herne Bay, CT6","£500,000        "
4 bedroom detached house for sale,"St James Place, The Street, Staple, Canterbury","£500,000        "
3 bedroom semi-detached house for sale,"Lanthorne Road,","£500,000        "
4 bedroom detached bungalow for sale,"Daimler Avenue, Herne Bay, CT6","£500,000        "
4 bedroom detached house for sale,"Middle Deal Road, Deal, Kent","£500,000        "
3 bedroom detached house for sale,"London Road, River, Dover, Kent, CT17","£500,000        "
4 bedroom house for sale,"Ebbsfleet Lane, Cliffsend, Ramsgate","£500,000        "
4 bedroom detached house for sale,"George House, George Park, Margate","£500,000        "
2 bedroom bungalow for sale,"Detling Avenue, Broadstairs","£500,000        "
3 bedroom detached house for sale,"Minnis Road, Birchington, Kent","£500,000        "
4 bedroom end of terrace house for sale,"Church Hill, Harbledown, Canterbury","£500,000        "
4 bedroom detached house for sale,"Island Road,","£474,995        "
4 bedroom terraced house for sale,"Abbots Hill, Ramsgate","£500,000        "
3 bedroom terraced house for sale,"Lavender Mews, St. Mildreds, Canterbury","£500,000        "
4 bedroom cottage for sale,"Sutton Lane, Ringwould, Deal, Kent","£500,000        "
4 bedroom semi-detached house for sale,Littlebourne,"£500,000        "
3 bedroom end of terrace house for sale,"Addington Street, Margate, Kent","£500,000        "
4 bedroom detached house for sale,"Holm Oak Walk, Sholden, Deal","£500,000        "
4 bedroom semi-detached bungalow for sale,"Church Street, Nonington","£500,000        "
3 bedroom house for sale,"The Street, Ash, Canterbury","£500,000        "
4 bedroom semi-detached house for sale,"Ramsgate Road, Broadstairs","£500,000        "
3 bedroom semi-detached house for sale,"Thurston Park, Whitstable","£500,000        "
2 bedroom detached bungalow for sale,"Carlton Rise, Westgate-On-Sea","£500,000        "
2 bedroom flat for sale,"St. Cuby Cliff Promenade, Broadstairs, Kent, CT10","£500,000        "
2 bedroom apartment for sale,"North Foreland Estate, Broadstairs, Kent","£500,000        "
4 bedroom detached house for sale,"Stirling Way, Ramsgate","£500,000        "
4 bedroom terraced house for sale,"Westgate Bay Avenue, Westgate-on-sea, CT8","£500,000        "
4 bedroom detached house for sale,"Walmer Gardens, Deal, Kent, CT14","£500,000        "
4 bedroom bungalow for sale,"Daimler Avenue, Herne Bay","£500,000        "
4 bedroom semi-detached house for sale,"School Lane, Stourmouth, Canterbury, CT3","£500,000        "
4 bedroom terraced house for sale,"Bridge Close, Sandwich, CT13","£500,000        "
3 bedroom detached bungalow for sale,"Blean Common, Blean, Canterbury","£500,000        "
4 bedroom semi-detached house for sale,"Westbrook Avenue, Margate","£500,000        "
3 bedroom detached house for sale,"Teynham Road, Whitstable","£500,000        "
3 bedroom bungalow for sale,"School Lane, Bekesbourne, Canterbury, CT4","£500,000        "
6 bedroom terraced house for sale,"Garfield Road, Margate, Kent, CT9","£500,000        "
